trunk/DE0_nano/icarus/testbench.vcd
$date
	Mon Dec 01 23:48:37 2014
$end
$version
	Icarus Verilog
$end
$timescale
	1ns
$end
$scope module testbench $end
$var wire 1 ! async_out $end
$var wire 16 " code_addr [15:0] $end
$var wire 16 # code_fetched [15:0] $end
$var wire 16 $ code_in [15:0] $end
$var wire 256 % data_in_flat [255:0] $end
$var wire 256 & r_flat [255:0] $end
$var wire 16 ' r_load [15:0] $end
$var wire 1 ( txbsy $end
$var reg 1 ) clk50m $end
$var reg 1 * clk_async $end
$var reg 1 + code_ready $end
$var reg 1 , sysreset $end
$scope module rom $end
$var wire 16 - addr [15:0] $end
$var wire 16 . data [15:0] $end
$upscope $end
$scope module chip $end
$var wire 1 / ad0_carry_out_comb $end
$var wire 17 0 ad0_comb [16:0] $end
$var wire 1 1 ad0_zero_comb $end
$var wire 16 2 ad1_comb [15:0] $end
$var wire 1 3 ad1_zero_comb $end
$var wire 16 4 ad2_comb [15:0] $end
$var wire 1 5 ad2_zero_comb $end
$var wire 16 6 and0_comb [15:0] $end
$var wire 1 7 binary_operator0 $end
$var wire 1 8 bn_operator $end
$var wire 1 9 br_operator $end
$var wire 1 : branch_accept $end
$var wire 1 ; clrf_operator $end
$var wire 16 < code_addr [15:0] $end
$var wire 16 = code_in [15:0] $end
$var wire 1 > code_ready $end
$var wire 16 ? const_neg1 [15:0] $end
$var wire 256 @ data_in_flat [255:0] $end
$var wire 1 A enable_exec $end
$var wire 16 B flags [15:0] $end
$var wire 1 C hold_ipr $end
$var wire 1 D load_exr $end
$var wire 1 E load_ipr $end
$var wire 16 F muxa_comb [15:0] $end
$var wire 6 G muxa_dest_addr [5:0] $end
$var wire 1 H muxa_do_copy $end
$var wire 1 I muxa_source_imm16 $end
$var wire 10 J muxa_src_addr [9:0] $end
$var wire 16 K next_code_addr [15:0] $end
$var wire 16 L or0_comb [15:0] $end
$var wire 256 M r_flat [255:0] $end
$var wire 16 N r_load [15:0] $end
$var wire 1 O random_fetch_operator $end
$var wire 1 P selected_flag $end
$var wire 4 Q selected_flag_addr [3:0] $end
$var wire 1 R setf_operator $end
$var wire 16 S sh1l0 [15:0] $end
$var wire 16 T sh1r0 [15:0] $end
$var wire 16 U sh4l0 [15:0] $end
$var wire 16 V sh4r0 [15:0] $end
$var wire 16 W small_constant [15:0] $end
$var wire 1 X sysclk $end
$var wire 1 Y sysreset $end
$var wire 16 Z xor0_comb [15:0] $end
$var reg 16 [ ad0 [15:0] $end
$var reg 1 \ ad0_carry_flag $end
$var reg 1 ] ad0_zero_flag $end
$var reg 16 ^ ad1 [15:0] $end
$var reg 1 _ ad1_zero_flag $end
$var reg 16 ` ad2 [15:0] $end
$var reg 1 a ad2_zero_flag $end
$var reg 16 b and0 [15:0] $end
$var reg 1 c and0_zero_flag $end
$var reg 1 d branching_cycle $end
$var reg 1 e const16cycle1 $end
$var reg 16 f exr [15:0] $end
$var reg 16 g ipr [15:0] $end
$var reg 1 h load_carry $end
$var reg 16 i or0 [15:0] $end
$var reg 16 j random_fetch_addr [15:0] $end
$var reg 1 k random_fetch_cycle1 $end
$var reg 1 l random_fetch_cycle2 $end
$var reg 16 m random_fetch_result [15:0] $end
$var reg 16 n xor0 [15:0] $end
$scope begin regs[0] $end
$var wire 16 o r [15:0] $end
$scope module r_reg $end
$var wire 16 p data_in [15:0] $end
$var wire 1 q load $end
$var wire 1 X sysclk $end
$var wire 1 Y sysreset $end
$var reg 16 r data_out [15:0] $end
$upscope $end
$upscope $end
$scope begin regs[1] $end
$var wire 16 s r [15:0] $end
$scope module r_reg $end
$var wire 16 t data_in [15:0] $end
$var wire 1 u load $end
$var wire 1 X sysclk $end
$var wire 1 Y sysreset $end
$var reg 16 v data_out [15:0] $end
$upscope $end
$upscope $end
$scope begin regs[2] $end
$var wire 16 w r [15:0] $end
$scope module r_reg $end
$var wire 16 x data_in [15:0] $end
$var wire 1 y load $end
$var wire 1 X sysclk $end
$var wire 1 Y sysreset $end
$var reg 16 z data_out [15:0] $end
$upscope $end
$upscope $end
$scope begin regs[3] $end
$var wire 16 { r [15:0] $end
$scope module r_reg $end
$var wire 16 | data_in [15:0] $end
$var wire 1 } load $end
$var wire 1 X sysclk $end
$var wire 1 Y sysreset $end
$var reg 16 ~ data_out [15:0] $end
$upscope $end
$upscope $end
$scope begin regs[4] $end
$var wire 16 !" r [15:0] $end
$scope module r_reg $end
$var wire 16 "" data_in [15:0] $end
$var wire 1 #" load $end
$var wire 1 X sysclk $end
$var wire 1 Y sysreset $end
$var reg 16 $" data_out [15:0] $end
$upscope $end
$upscope $end
$scope begin regs[5] $end
$var wire 16 %" r [15:0] $end
$scope module r_reg $end
$var wire 16 &" data_in [15:0] $end
$var wire 1 '" load $end
$var wire 1 X sysclk $end
$var wire 1 Y sysreset $end
$var reg 16 (" data_out [15:0] $end
$upscope $end
$upscope $end
$scope begin regs[6] $end
$var wire 16 )" r [15:0] $end
$scope module r_reg $end
$var wire 16 *" data_in [15:0] $end
$var wire 1 +" load $end
$var wire 1 X sysclk $end
$var wire 1 Y sysreset $end
$var reg 16 ," data_out [15:0] $end
$upscope $end
$upscope $end
$scope begin regs[7] $end
$var wire 16 -" r [15:0] $end
$scope module r_reg $end
$var wire 16 ." data_in [15:0] $end
$var wire 1 /" load $end
$var wire 1 X sysclk $end
$var wire 1 Y sysreset $end
$var reg 16 0" data_out [15:0] $end
$upscope $end
$upscope $end
$scope begin regs[8] $end
$var wire 16 1" r [15:0] $end
$scope module r_reg $end
$var wire 16 2" data_in [15:0] $end
$var wire 1 3" load $end
$var wire 1 X sysclk $end
$var wire 1 Y sysreset $end
$var reg 16 4" data_out [15:0] $end
$upscope $end
$upscope $end
$scope begin regs[9] $end
$var wire 16 5" r [15:0] $end
$scope module r_reg $end
$var wire 16 6" data_in [15:0] $end
$var wire 1 7" load $end
$var wire 1 X sysclk $end
$var wire 1 Y sysreset $end
$var reg 16 8" data_out [15:0] $end
$upscope $end
$upscope $end
$scope begin regs[10] $end
$var wire 16 9" r [15:0] $end
$scope module r_reg $end
$var wire 16 :" data_in [15:0] $end
$var wire 1 ;" load $end
$var wire 1 X sysclk $end
$var wire 1 Y sysreset $end
$var reg 16 <" data_out [15:0] $end
$upscope $end
$upscope $end
$scope begin regs[11] $end
$var wire 16 =" r [15:0] $end
$scope module r_reg $end
$var wire 16 >" data_in [15:0] $end
$var wire 1 ?" load $end
$var wire 1 X sysclk $end
$var wire 1 Y sysreset $end
$var reg 16 @" data_out [15:0] $end
$upscope $end
$upscope $end
$scope begin regs[12] $end
$var wire 16 A" r [15:0] $end
$scope module r_reg $end
$var wire 16 B" data_in [15:0] $end
$var wire 1 C" load $end
$var wire 1 X sysclk $end
$var wire 1 Y sysreset $end
$var reg 16 D" data_out [15:0] $end
$upscope $end
$upscope $end
$scope begin regs[13] $end
$var wire 16 E" r [15:0] $end
$scope module r_reg $end
$var wire 16 F" data_in [15:0] $end
$var wire 1 G" load $end
$var wire 1 X sysclk $end
$var wire 1 Y sysreset $end
$var reg 16 H" data_out [15:0] $end
$upscope $end
$upscope $end
$scope begin regs[14] $end
$var wire 16 I" r [15:0] $end
$scope module r_reg $end
$var wire 16 J" data_in [15:0] $end
$var wire 1 K" load $end
$var wire 1 X sysclk $end
$var wire 1 Y sysreset $end
$var reg 16 L" data_out [15:0] $end
$upscope $end
$upscope $end
$scope begin regs[15] $end
$var wire 16 M" r [15:0] $end
$scope module r_reg $end
$var wire 16 N" data_in [15:0] $end
$var wire 1 O" load $end
$var wire 1 X sysclk $end
$var wire 1 Y sysreset $end
$var reg 16 P" data_out [15:0] $end
$upscope $end
$upscope $end
$scope begin data_in[0] $end
$var wire 16 Q" d [15:0] $end
$upscope $end
$scope begin data_in[1] $end
$var wire 16 R" d [15:0] $end
$upscope $end
$scope begin data_in[2] $end
$var wire 16 S" d [15:0] $end
$upscope $end
$scope begin data_in[3] $end
$var wire 16 T" d [15:0] $end
$upscope $end
$scope begin data_in[4] $end
$var wire 16 U" d [15:0] $end
$upscope $end
$scope begin data_in[5] $end
$var wire 16 V" d [15:0] $end
$upscope $end
$scope begin data_in[6] $end
$var wire 16 W" d [15:0] $end
$upscope $end
$scope begin data_in[7] $end
$var wire 16 X" d [15:0] $end
$upscope $end
$scope begin data_in[8] $end
$var wire 16 Y" d [15:0] $end
$upscope $end
$scope begin data_in[9] $end
$var wire 16 Z" d [15:0] $end
$upscope $end
$scope begin data_in[10] $end
$var wire 16 [" d [15:0] $end
$upscope $end
$scope begin data_in[11] $end
$var wire 16 \" d [15:0] $end
$upscope $end
$scope begin data_in[12] $end
$var wire 16 ]" d [15:0] $end
$upscope $end
$scope begin data_in[13] $end
$var wire 16 ^" d [15:0] $end
$upscope $end
$scope begin data_in[14] $end
$var wire 16 _" d [15:0] $end
$upscope $end
$scope begin data_in[15] $end
$var wire 16 `" d [15:0] $end
$upscope $end
$upscope $end
$scope module utx $end
$var wire 1 a" load_data $end
$var wire 8 b" parallel_in [7:0] $end
$var wire 1 ( tx_busy $end
$var wire 1 ! tx_line $end
$var wire 1 c" uart_sample_clk $end
$var reg 6 d" sample_cnt [5:0] $end
$var reg 9 e" tx_shifter [8:0] $end
$upscope $end
$scope begin regs[0] $end
$var wire 16 f" r [15:0] $end
$upscope $end
$scope begin regs[1] $end
$var wire 16 g" r [15:0] $end
$upscope $end
$scope begin regs[2] $end
$var wire 16 h" r [15:0] $end
$upscope $end
$scope begin regs[3] $end
$var wire 16 i" r [15:0] $end
$upscope $end
$scope begin regs[4] $end
$var wire 16 j" r [15:0] $end
$upscope $end
$scope begin regs[5] $end
$var wire 16 k" r [15:0] $end
$upscope $end
$scope begin regs[6] $end
$var wire 16 l" r [15:0] $end
$upscope $end
$scope begin regs[7] $end
$var wire 16 m" r [15:0] $end
$upscope $end
$scope begin regs[8] $end
$var wire 16 n" r [15:0] $end
$upscope $end
$scope begin regs[9] $end
$var wire 16 o" r [15:0] $end
$upscope $end
$scope begin regs[10] $end
$var wire 16 p" r [15:0] $end
$upscope $end
$scope begin regs[11] $end
$var wire 16 q" r [15:0] $end
$upscope $end
$scope begin regs[12] $end
$var wire 16 r" r [15:0] $end
$upscope $end
$scope begin regs[13] $end
$var wire 16 s" r [15:0] $end
$upscope $end
$scope begin regs[14] $end
$var wire 16 t" r [15:0] $end
$upscope $end
$scope begin regs[15] $end
$var wire 16 u" r [15:0] $end
$upscope $end
$scope begin data_in[0] $end
$var wire 16 v" d [15:0] $end
$upscope $end
$scope begin data_in[1] $end
$var wire 16 w" d [15:0] $end
$upscope $end
$scope begin data_in[2] $end
$var wire 16 x" d [15:0] $end
$upscope $end
$scope begin data_in[3] $end
$var wire 16 y" d [15:0] $end
$upscope $end
$scope begin data_in[4] $end
$var wire 16 z" d [15:0] $end
$upscope $end
$scope begin data_in[5] $end
$var wire 16 {" d [15:0] $end
$upscope $end
$scope begin data_in[6] $end
$var wire 16 |" d [15:0] $end
$upscope $end
$scope begin data_in[7] $end
$var wire 16 }" d [15:0] $end
$upscope $end
$scope begin data_in[8] $end
$var wire 16 ~" d [15:0] $end
$upscope $end
$scope begin data_in[9] $end
$var wire 16 !# d [15:0] $end
$upscope $end
$scope begin data_in[10] $end
$var wire 16 "# d [15:0] $end
$upscope $end
$scope begin data_in[11] $end
$var wire 16 ## d [15:0] $end
$upscope $end
$scope begin data_in[12] $end
$var wire 16 $# d [15:0] $end
$upscope $end
$scope begin data_in[13] $end
$var wire 16 %# d [15:0] $end
$upscope $end
$scope begin data_in[14] $end
$var wire 16 &# d [15:0] $end
$upscope $end
$scope begin data_in[15] $end
$var wire 16 '# d [15:0] $end
$upscope $end
$upscope $end
$scope module uart_v2_rx $end
$var wire 1 (# never $end
$var wire 8 )# parallel_out [7:0] $end
$var wire 1 *# rx_busy $end
$var wire 1 +# rx_line $end
$var wire 1 ,# uart_sample_clk $end
$var reg 8 -# rx_shifter [7:0] $end
$var reg 3 .# rx_state [2:0] $end
$var reg 5 /# sample_cnt [4:0] $end
$upscope $end
$enddefinitions $end
#0
$dumpvars
b0 /#
bx .#
b0 -#
z,#
z+#
x*#
b0 )#
0(#
bz '#
bz &#
bz %#
bz $#
bz ##
bz "#
bz !#
bz ~"
bz }"
bz |"
bz {"
bz z"
bz y"
bz x"
bz w"
b0 v"
bx u"
bx t"
bx s"
bx r"
bx q"
bx p"
bx o"
bx n"
bx m"
bx l"
bx k"
bx j"
bx i"
bx h"
bx g"
bx f"
b111111111 e"
b0 d"
0c"
bx b"
xa"
bz `"
bz _"
bz ^"
bz ]"
bz \"
bz ["
bz Z"
bz Y"
bz X"
bz W"
bz V"
bz U"
bz T"
bz S"
bz R"
b0 Q"
bx P"
xO"
bx N"
bx M"
bx L"
xK"
bx J"
bx I"
bx H"
xG"
bx F"
bx E"
bx D"
xC"
bx B"
bx A"
bx @"
x?"
bx >"
bx ="
bx <"
x;"
bx :"
bx 9"
bx 8"
x7"
bx 6"
bx 5"
bx 4"
x3"
bx 2"
bx 1"
bx 0"
x/"
bx ."
bx -"
bx ,"
x+"
bx *"
bx )"
bx ("
x'"
bx &"
bx %"
bx $"
x#"
bx ""
bx !"
bx ~
x}
bx |
bx {
bx z
xy
bx x
bx w
bx v
xu
bx t
bx s
bx r
xq
bx p
bx o
bx n
b0 m
0l
0k
b0 j
bx i
0h
b0 g
bx f
0e
0d
0c
bx b
xa
bx `
x_
bx ^
x]
x\
bx [
bx Z
0Y
0X
b0xxxxxxxx W
b0xxxxxxxxxxxx V
bx0000 U
b0xxxxxxxxxxxxxxx T
bx0 S
xR
bx Q
xP
xO
bx N
bx M
bx L
b1 K
bx J
xI
1H
bx G
bx F
xE
1D
0C
b1xx0xx B
1A
bz0000000000000000 @
b1111111111111111 ?
1>
bz =
b0 <
x;
x:
x9
x8
x7
bx 6
x5
bx 4
x3
bx 2
x1
bx 0
x/
b10101000000001 .
b0 -
0,
1+
0*
0)
0(
bx '
bx &
bz0000000000000000 %
bz $
b10101000000001 #
b0 "
1!
$end
#300
b10101000000001 $
b10101000000001 =
#500
b1 F
b1 p
b1 t
b1 x
b1 |
b1 ""
b1 &"
b1 *"
b1 ."
b1 2"
b1 6"
b1 :"
b1 >"
b1 B"
b1 F"
b1 J"
b1 N"
07
0:
0E
0q
0u
0y
0}
0#"
0'"
0+"
0/"
03"
07"
x;"
0?"
0C"
0G"
0K"
0O"
xA
xH
0;
0R
0O
09
08
b0x0000000000 '
b0x0000000000 N
b1 Q
0I
bx #
bx .
b1010 G
b1000000001 J
b1 W
b0x "
b0x -
b0x <
xk
xD
xC
xd
xe
b10101000000001 f
b1 g
b10 K
xh
xc
b1xxxxx B
1)
1X
#800
bx $
bx =
#1000
0)
0X
#1085
1*
1c"
#1500
b10011000000000 #
b10011000000000 .
b1 "
b1 -
b1 <
0h
xl
0k
1D
0C
0d
0e
1)
1X
#1800
b10011000000000 $
b10011000000000 =
#2000
0)
0X
#2170
0*
0c"
#2500
b0 F
b0 p
b0 t
b0 x
b0 |
b0 ""
b0 &"
b0 *"
b0 ."
b0 2"
b0 6"
b0 :"
b0 >"
b0 B"
b0 F"
b0 J"
b0 N"
17"
0;"
b1001110100000 #
b1001110100000 .
b1000000000 '
b1000000000 N
b0 Q
1A
1H
b1001 G
b1000000000 J
b0 W
b10 "
b10 -
b10 <
0l
b10011000000000 f
b10 g
b11 K
1)
1X
#2800
b1001110100000 $
b1001110100000 =
#3000
17
1q
07"
b1 '
b1 N
b10101000000001 #
b10101000000001 .
0a"
b0 b"
0/
11
b0 G
b0 J
b0 "
b0 -
b0 <
b0 u"
b0 t"
b0 s"
b0 r"
b0 q"
b0 p"
b0 o"
b0 n"
b0 m"
b0 l"
b0 k"
b0 j"
b0 i"
b0 h"
b0 g"
b0 V
b0 T
b0 U
b0 S
b0 f"
b0 Z
b0 L
b0 6
b0 n
b0 i
0c
b0 b
0a
0P
b0 `
0_
b0 ^
0\
b0 0
0]
b100000 B
b0 [
b0 f
b0 g
b1 K
b0 P"
b0 M"
b0 L"
b0 I"
b0 H"
b0 E"
b0 D"
b0 A"
b0 @"
b0 ="
b0 <"
b0 9"
b0 8"
b0 5"
b0 4"
b0 1"
b0 0"
b0 -"
b0 ,"
b0 )"
b0 ("
b0 %"
15
b0 4
b0 $"
b0 !"
b0 ~
b0 {
13
b0 2
b0 z
b0 w
b0 v
b0 s
b0 r
b0 o
b0 &
b0 M
0)
0X
1,
1Y
#3255
1*
1c"
#3300
b10101000000001 $
b10101000000001 =
#3500
1)
1X
#4000
0)
0X
#4340
0*
0c"
#4500
1)
1X
#5000
0)
0X
0,
0Y
#5425
1*
1c"
#5500
07
0q
1;"
b10000000000 '
b10000000000 N
b1 Q
b1 F
b1 p
b1 t
b1 x
b1 |
b1 ""
b1 &"
b1 *"
b1 ."
b1 2"
b1 6"
b1 :"
b1 >"
b1 B"
b1 F"
b1 J"
b1 N"
b10011000000000 #
b10011000000000 .
b1010 G
b1000000001 J
b1 W
b1 "
b1 -
b1 <
b10101000000001 f
b1 g
b10 K
1h
1_
1a
1P
1c
b100111 B
1)
1X
#5800
b10011000000000 $
b10011000000000 =
#6000
0)
0X
#6500
b0 F
b0 p
b0 t
b0 x
b0 |
b0 ""
b0 &"
b0 *"
b0 ."
b0 2"
b0 6"
b0 :"
b0 >"
b0 B"
b0 F"
b0 J"
b0 N"
17"
0;"
b1001110100000 #
b1001110100000 .
b1000000000 '
b1000000000 N
b0 Q
b1001 G
b1000000000 J
b0 W
b10 "
b10 -
b10 <
b1 p"
0h
1]
b110111 B
b10011000000000 f
b10 g
b11 K
b1 <"
b1 9"
b10000000000000000000000000000000000000000000000000000000000000000000000000000000000000000000000000000000000000000000000000000000000000000000000000000000000000000 &
b10000000000000000000000000000000000000000000000000000000000000000000000000000000000000000000000000000000000000000000000000000000000000000000000000000000000000000 M
1)
1X
#6510
0*
0c"
#6800
b1001110100000 $
b1001110100000 =
#7000
0)
0X
#7500
b1001110100000 F
b1001110100000 p
b1001110100000 t
b1001110100000 x
b1001110100000 |
b1001110100000 ""
b1001110100000 &"
b1001110100000 *"
b1001110100000 ."
b1001110100000 2"
b1001110100000 6"
b1001110100000 :"
b1001110100000 >"
b1001110100000 B"
b1001110100000 F"
b1001110100000 J"
b1001110100000 N"
b1111111100000000 #
b1111111100000000 .
1#"
07"
b10000 '
b10000 N
1I
b100 G
b1110100000 J
b10100000 W
b11 "
b11 -
b11 <
b1001110100000 f
b11 g
b100 K
1)
1X
#7595
1*
1c"
#7800
b1111111100000000 F
b1111111100000000 p
b1111111100000000 t
b1111111100000000 x
b1111111100000000 |
b1111111100000000 ""
b1111111100000000 &"
b1111111100000000 *"
b1111111100000000 ."
b1111111100000000 2"
b1111111100000000 6"
b1111111100000000 :"
b1111111100000000 >"
b1111111100000000 B"
b1111111100000000 F"
b1111111100000000 J"
b1111111100000000 N"
b1111111100000000 $
b1111111100000000 =
#8000
0)
0X
#8500
b0 F
b0 p
b0 t
b0 x
b0 |
b0 ""
b0 &"
b0 *"
b0 ."
b0 2"
b0 6"
b0 :"
b0 >"
b0 B"
b0 F"
b0 J"
b0 N"
b1011101100000 #
b1011101100000 .
0A
0H
0#"
b0 '
b0 N
0I
b111111 G
b1100000000 J
b0 W
b100 "
b100 -
b100 <
b1111111100000000 j"
1e
b1111111100000000 f
b100 g
b101 K
b1111111100000000 $"
05
b1111111100000000 4
b1111111100000000 !"
b10000000000000000000000000000000000000000000000000000000000000000000000000000000011111111000000000000000000000000000000000000000000000000000000000000000000000000 &
b10000000000000000000000000000000000000000000000000000000000000000000000000000000011111111000000000000000000000000000000000000000000000000000000000000000000000000 M
1)
1X
#8680
0*
0c"
#8800
b1011101100000 $
b1011101100000 =
#9000
0)
0X
#9500
b1111111111111111 F
b1111111111111111 p
b1111111111111111 t
b1111111111111111 x
b1111111111111111 |
b1111111111111111 ""
b1111111111111111 &"
b1111111111111111 *"
b1111111111111111 ."
b1111111111111111 2"
b1111111111111111 6"
b1111111111111111 :"
b1111111111111111 >"
b1111111111111111 B"
b1111111111111111 F"
b1111111111111111 J"
b1111111111111111 N"
b101000000000 #
b101000000000 .
1'"
b100000 '
b100000 N
1A
1H
b101 G
b1101100000 J
b1100000 W
b101 "
b101 -
b101 <
0e
b1011101100000 f
b101 g
b110 K
0a
0P
b110110 B
b1111111100000000 `
1)
1X
#9765
1*
1c"
#9800
b101000000000 $
b101000000000 =
#10000
0)
0X
#10500
b0 F
b0 p
b0 t
b0 x
b0 |
b0 ""
b0 &"
b0 *"
b0 ."
b0 2"
b0 6"
b0 :"
b0 >"
b0 B"
b0 F"
b0 J"
b0 N"
b1000000101 #
b1000000101 .
1y
0'"
b100 '
b100 N
b10 G
b1000000000 J
b0 W
b110 "
b110 -
b110 <
b1111111111111111 k"
b101000000000 f
b110 g
b111 K
b1111111111111111 ("
b1111111111111111 %"
b10000000000000000000000000000000000000000000000000000000000000000111111111111111111111111000000000000000000000000000000000000000000000000000000000000000000000000 &
b10000000000000000000000000000000000000000000000000000000000000000111111111111111111111111000000000000000000000000000000000000000000000000000000000000000000000000 M
b1111111011111111 4
1)
1X
#10800
b1000000101 $
b1000000101 =
#10850
0*
0c"
#11000
0)
0X
#11500
b101 F
b101 p
b101 t
b101 x
b101 |
b101 ""
b101 &"
b101 *"
b101 ."
b101 2"
b101 6"
b101 :"
b101 >"
b101 B"
b101 F"
b101 J"
b101 N"
b11110100000 #
b11110100000 .
17
1q
0y
b1 '
b1 N
1P
b101 Q
b0 G
b1000000101 J
b101 W
b111 "
b111 -
b111 <
b1000000101 f
b111 g
b1000 K
b1111111011111111 `
1)
1X
#11800
b11110100000 $
b11110100000 =
#11935
1*
1c"
#12000
0)
0X
#12500
b11110100000 F
b11110100000 p
b11110100000 t
b11110100000 x
b11110100000 |
b11110100000 ""
b11110100000 &"
b11110100000 *"
b11110100000 ."
b11110100000 2"
b11110100000 6"
b11110100000 :"
b11110100000 >"
b11110100000 B"
b11110100000 F"
b11110100000 J"
b11110100000 N"
b1111111111111111 #
b1111111111111111 .
0q
1u
b10 '
b10 N
0P
b0 Q
1I
b1 G
b1110100000 J
b10100000 W
b1000 "
b1000 -
b1000 <
b10 T
b1010000 U
b1010 S
b101 f"
01
b101 Z
b101 L
1h
b11110100000 f
b1000 g
b1001 K
b101 r
b101 o
b10000000000000000000000000000000000000000000000000000000000000000111111111111111111111111000000000000000000000000000000000000000000000000000000000000000000000101 &
b10000000000000000000000000000000000000000000000000000000000000000111111111111111111111111000000000000000000000000000000000000000000000000000000000000000000000101 M
b101 0
1)
1X
#12800
b1111111111111111 F
b1111111111111111 p
b1111111111111111 t
b1111111111111111 x
b1111111111111111 |
b1111111111111111 ""
b1111111111111111 &"
b1111111111111111 *"
b1111111111111111 ."
b1111111111111111 2"
b1111111111111111 6"
b1111111111111111 :"
b1111111111111111 >"
b1111111111111111 B"
b1111111111111111 F"
b1111111111111111 J"
b1111111111111111 N"
b1111111111111111 $
b1111111111111111 =
#13000
0)
0X
#13020
0*
0c"
#13500
bx F
bx p
bx t
bx x
bx |
bx ""
bx &"
bx *"
bx ."
bx 2"
bx 6"
bx :"
bx >"
bx B"
bx F"
bx J"
bx N"
b1100100000000000 #
b1100100000000000 .
07
0A
0H
0u
b0 '
b0 N
b1111 Q
0I
b1111111111111111 g"
1/
b1111111111111010 Z
b1111111111111111 L
b101 6
b111111 G
b1111111111 J
b11111111 W
b1001 "
b1001 -
b1001 <
b1111111111111111 v
b1111111111111111 s
b10000000000000000000000000000000000000000000000000000000000000000111111111111111111111111000000000000000000000000000000000000000011111111111111110000000000000101 &
b10000000000000000000000000000000000000000000000000000000000000000111111111111111111111111000000000000000000000000000000000000000011111111111111110000000000000101 M
b10000000000000100 0
1e
b1111111111111111 f
b1001 g
b1010 K
0]
b100110 B
b101 [
b101 n
b101 i
1)
1X
#13800
b1100100000000000 $
b1100100000000000 =
#14000
0)
0X
#14105
1*
1c"
#14500
b1101100111000 #
b1101100111000 .
1A
1H
b0 Q
b101 F
b101 p
b101 t
b101 x
b101 |
b101 ""
b101 &"
b101 *"
b101 ."
b101 2"
b101 6"
b101 :"
b101 >"
b101 B"
b101 F"
b101 J"
b101 N"
b110010 G
b0 J
b0 W
b1010 "
b1010 -
b1010 <
b1111111111111010 n
b1111111111111111 i
0c
b101 b
0h
1\
b10000000000000101 0
b101010 B
b100 [
0e
b1100100000000000 f
b1010 g
b1011 K
1)
1X
#14800
b1101100111000 $
b1101100111000 =
#15000
0)
0X
#15190
0*
0c"
#15500
b1001100100000 #
b1001100100000 .
1+"
b1000000 '
b1000000 N
b1000 Q
b1111111111111010 F
b1111111111111010 p
b1111111111111010 t
b1111111111111010 x
b1111111111111010 |
b1111111111111010 ""
b1111111111111010 &"
b1111111111111010 *"
b1111111111111010 ."
b1111111111111010 2"
b1111111111111010 6"
b1111111111111010 :"
b1111111111111010 >"
b1111111111111010 B"
b1111111111111010 F"
b1111111111111010 J"
b1111111111111010 N"
b110 G
b1100111000 J
b111000 W
b1011 "
b1011 -
b1011 <
b1101100111000 f
b1011 g
b1100 K
1)
1X
#15800
b1001100100000 $
b1001100100000 =
#16000
0)
0X
#16275
1*
1c"
#16500
b1111111011111111 F
b1111111011111111 p
b1111111011111111 t
b1111111011111111 x
b1111111011111111 |
b1111111011111111 ""
b1111111011111111 &"
b1111111011111111 *"
b1111111011111111 ."
b1111111011111111 2"
b1111111011111111 6"
b1111111011111111 :"
b1111111011111111 >"
b1111111011111111 B"
b1111111011111111 F"
b1111111011111111 J"
b1111111011111111 N"
b1100100000000000 #
b1100100000000000 .
1#"
0+"
b10000 '
b10000 N
b0 Q
b100 G
b1100100000 J
b100000 W
b1100 "
b1100 -
b1100 <
b1111111111111010 l"
b1001100100000 f
b1100 g
b1101 K
b1111111111111010 ,"
b1111111111111010 )"
b10000000000000000000000000000000000000000000000001111111111111010111111111111111111111111000000000000000000000000000000000000000011111111111111110000000000000101 &
b10000000000000000000000000000000000000000000000001111111111111010111111111111111111111111000000000000000000000000000000000000000011111111111111110000000000000101 M
1)
1X
#16800
b1100100000000000 $
b1100100000000000 =
#17000
0)
0X
#17360
0*
0c"
#17500
b100 #
b100 .
0#"
b0 '
b0 N
b101 F
b101 p
b101 t
b101 x
b101 |
b101 ""
b101 &"
b101 *"
b101 ."
b101 2"
b101 6"
b101 :"
b101 >"
b101 B"
b101 F"
b101 J"
b101 N"
b1111111011111111 j"
b110010 G
b0 J
b0 W
b1101 "
b1101 -
b1101 <
b1111111011111111 $"
b1111111011111110 4
b1111111011111111 !"
b10000000000000000000000000000000000000000000000001111111111111010111111111111111111111110111111110000000000000000000000000000000011111111111111110000000000000101 &
b10000000000000000000000000000000000000000000000001111111111111010111111111111111111111110111111110000000000000000000000000000000011111111111111110000000000000101 M
b1100100000000000 f
b1101 g
b1110 K
1)
1X
#17800
b100 $
b100 =
#18000
0)
0X
#18445
1*
1c"
#18500
b1101010011 #
b1101010011 .
17
1q
b1 '
b1 N
b100 Q
b1111111011111111 F
b1111111011111111 p
b1111111011111111 t
b1111111011111111 x
b1111111011111111 |
b1111111011111111 ""
b1111111011111111 &"
b1111111011111111 *"
b1111111011111111 ."
b1111111011111111 2"
b1111111011111111 6"
b1111111011111111 :"
b1111111011111111 >"
b1111111011111111 B"
b1111111011111111 F"
b1111111011111111 J"
b1111111011111111 N"
b0 G
b100 J
b100 W
b1110 "
b1110 -
b1110 <
b1111111011111110 `
b100 f
b1110 g
b1111 K
1)
1X
#18800
b1101010011 $
b1101010011 =
#19000
0)
0X
#19500
b10101101010011 #
b10101101010011 .
b111111101111 F
b111111101111 p
b111111101111 t
b111111101111 x
b111111101111 |
b111111101111 ""
b111111101111 &"
b111111101111 *"
b111111101111 ."
b111111101111 2"
b111111101111 6"
b111111101111 :"
b111111101111 >"
b111111101111 B"
b111111101111 F"
b111111101111 J"
b111111101111 N"
1P
b11 Q
b111111101111 V
b111111101111111 T
b1110111111110000 U
b1111110111111110 S
b1111111011111111 f"
b100000000 Z
b1111111011111111 6
b1101010011 J
b1010011 W
b1111 "
b1111 -
b1111 <
b1111111011111111 r
b1111111011111111 o
b10000000000000000000000000000000000000000000000001111111111111010111111111111111111111110111111110000000000000000000000000000000011111111111111111111111011111111 &
b10000000000000000000000000000000000000000000000001111111111111010111111111111111111111110111111110000000000000000000000000000000011111111111111111111111011111111 M
b11111111011111111 0
b1101010011 f
b1111 g
b10000 K
1h
1)
1X
#19530
0*
0c"
#19800
b10101101010011 $
b10101101010011 =
#20000
0)
0X
#20500
b11111110 F
b11111110 p
b11111110 t
b11111110 x
b11111110 |
b11111110 ""
b11111110 &"
b11111110 *"
b11111110 ."
b11111110 2"
b11111110 6"
b11111110 :"
b11111110 >"
b11111110 B"
b11111110 F"
b11111110 J"
b11111110 N"
b1000000001 #
b1000000001 .
07
0q
1;"
b10000000000 '
b10000000000 N
b1010 G
b10000 "
b10000 -
b10000 <
b11111110 V
b11111110111 T
b1111111011110000 U
b1111111011110 S
b111111101111 f"
b1111000000010000 Z
b111111101111 6
b100000000 n
b1111111011111111 b
b1111111011111111 [
b10101101010011 f
b10000 g
b10001 K
b111111101111 r
b111111101111 o
b10000000000000000000000000000000000000000000000001111111111111010111111111111111111111110111111110000000000000000000000000000000011111111111111110000111111101111 &
b10000000000000000000000000000000000000000000000001111111111111010111111111111111111111110111111110000000000000000000000000000000011111111111111110000111111101111 M
b10000111111101111 0
1)
1X
#20615
1*
1c"
#20800
b1000000001 $
b1000000001 =
#21000
0)
0X
