trunk/DE0_nano/icarus/testbench.vcd
$date
	Mon Dec 01 01:48:24 2014
$end
$version
	Icarus Verilog
$end
$timescale
	1ns
$end
$scope module testbench $end
$var wire 1 ! async_out $end
$var wire 16 " code_addr [15:0] $end
$var wire 16 # code_fetched [15:0] $end
$var wire 16 $ code_in [15:0] $end
$var wire 256 % data_in_flat [255:0] $end
$var wire 256 & r_flat [255:0] $end
$var wire 16 ' r_load [15:0] $end
$var wire 1 ( txbsy $end
$var reg 1 ) clk50m $end
$var reg 1 * clk_async $end
$var reg 1 + code_ready $end
$var reg 1 , sysreset $end
$scope module rom $end
$var wire 16 - addr [15:0] $end
$var wire 16 . data [15:0] $end
$upscope $end
$scope module chip $end
$var wire 1 / ad0_carry_out_comb $end
$var wire 17 0 ad0_comb [16:0] $end
$var wire 1 1 ad0_zero_comb $end
$var wire 16 2 ad1_comb [15:0] $end
$var wire 1 3 ad1_zero_comb $end
$var wire 16 4 ad2_comb [15:0] $end
$var wire 1 5 ad2_zero_comb $end
$var wire 16 6 and0_comb [15:0] $end
$var wire 1 7 binary_operator0 $end
$var wire 1 8 bn_operator $end
$var wire 1 9 br_operator $end
$var wire 1 : branch_accept $end
$var wire 1 ; clrf_operator $end
$var wire 16 < code_addr [15:0] $end
$var wire 16 = code_in [15:0] $end
$var wire 1 > code_ready $end
$var wire 16 ? const_neg1 [15:0] $end
$var wire 256 @ data_in_flat [255:0] $end
$var wire 1 A enable_exec $end
$var wire 16 B flags [15:0] $end
$var wire 1 C load_ipr $end
$var wire 16 D muxa_comb [15:0] $end
$var wire 6 E muxa_dest_addr [5:0] $end
$var wire 1 F muxa_do_copy $end
$var wire 1 G muxa_source_imm16 $end
$var wire 10 H muxa_src_addr [9:0] $end
$var wire 16 I next_code_addr [15:0] $end
$var wire 16 J or0_comb [15:0] $end
$var wire 256 K r_flat [255:0] $end
$var wire 16 L r_load [15:0] $end
$var wire 1 M selected_flag $end
$var wire 4 N selected_flag_addr [3:0] $end
$var wire 1 O setf_operator $end
$var wire 16 P sh1l0 [15:0] $end
$var wire 16 Q sh1r0 [15:0] $end
$var wire 16 R sh4l0 [15:0] $end
$var wire 16 S sh4r0 [15:0] $end
$var wire 16 T small_constant [15:0] $end
$var wire 1 U sysclk $end
$var wire 1 V sysreset $end
$var wire 16 W xor0_comb [15:0] $end
$var reg 16 X ad0 [15:0] $end
$var reg 1 Y ad0_carry_flag $end
$var reg 1 Z ad0_zero_flag $end
$var reg 16 [ ad1 [15:0] $end
$var reg 1 \ ad1_zero_flag $end
$var reg 16 ] ad2 [15:0] $end
$var reg 1 ^ ad2_zero_flag $end
$var reg 16 _ and0 [15:0] $end
$var reg 1 ` and0_zero_flag $end
$var reg 1 a branching_cycle $end
$var reg 1 b const16cycle1 $end
$var reg 16 c exr [15:0] $end
$var reg 16 d ipr [15:0] $end
$var reg 1 e load_carry $end
$var reg 16 f or0 [15:0] $end
$var reg 16 g xor0 [15:0] $end
$scope begin regs[0] $end
$var wire 16 h r [15:0] $end
$scope module r_reg $end
$var wire 16 i data_in [15:0] $end
$var wire 1 j load $end
$var wire 1 U sysclk $end
$var wire 1 V sysreset $end
$var reg 16 k data_out [15:0] $end
$upscope $end
$upscope $end
$scope begin regs[1] $end
$var wire 16 l r [15:0] $end
$scope module r_reg $end
$var wire 16 m data_in [15:0] $end
$var wire 1 n load $end
$var wire 1 U sysclk $end
$var wire 1 V sysreset $end
$var reg 16 o data_out [15:0] $end
$upscope $end
$upscope $end
$scope begin regs[2] $end
$var wire 16 p r [15:0] $end
$scope module r_reg $end
$var wire 16 q data_in [15:0] $end
$var wire 1 r load $end
$var wire 1 U sysclk $end
$var wire 1 V sysreset $end
$var reg 16 s data_out [15:0] $end
$upscope $end
$upscope $end
$scope begin regs[3] $end
$var wire 16 t r [15:0] $end
$scope module r_reg $end
$var wire 16 u data_in [15:0] $end
$var wire 1 v load $end
$var wire 1 U sysclk $end
$var wire 1 V sysreset $end
$var reg 16 w data_out [15:0] $end
$upscope $end
$upscope $end
$scope begin regs[4] $end
$var wire 16 x r [15:0] $end
$scope module r_reg $end
$var wire 16 y data_in [15:0] $end
$var wire 1 z load $end
$var wire 1 U sysclk $end
$var wire 1 V sysreset $end
$var reg 16 { data_out [15:0] $end
$upscope $end
$upscope $end
$scope begin regs[5] $end
$var wire 16 | r [15:0] $end
$scope module r_reg $end
$var wire 16 } data_in [15:0] $end
$var wire 1 ~ load $end
$var wire 1 U sysclk $end
$var wire 1 V sysreset $end
$var reg 16 !" data_out [15:0] $end
$upscope $end
$upscope $end
$scope begin regs[6] $end
$var wire 16 "" r [15:0] $end
$scope module r_reg $end
$var wire 16 #" data_in [15:0] $end
$var wire 1 $" load $end
$var wire 1 U sysclk $end
$var wire 1 V sysreset $end
$var reg 16 %" data_out [15:0] $end
$upscope $end
$upscope $end
$scope begin regs[7] $end
$var wire 16 &" r [15:0] $end
$scope module r_reg $end
$var wire 16 '" data_in [15:0] $end
$var wire 1 (" load $end
$var wire 1 U sysclk $end
$var wire 1 V sysreset $end
$var reg 16 )" data_out [15:0] $end
$upscope $end
$upscope $end
$scope begin regs[8] $end
$var wire 16 *" r [15:0] $end
$scope module r_reg $end
$var wire 16 +" data_in [15:0] $end
$var wire 1 ," load $end
$var wire 1 U sysclk $end
$var wire 1 V sysreset $end
$var reg 16 -" data_out [15:0] $end
$upscope $end
$upscope $end
$scope begin regs[9] $end
$var wire 16 ." r [15:0] $end
$scope module r_reg $end
$var wire 16 /" data_in [15:0] $end
$var wire 1 0" load $end
$var wire 1 U sysclk $end
$var wire 1 V sysreset $end
$var reg 16 1" data_out [15:0] $end
$upscope $end
$upscope $end
$scope begin regs[10] $end
$var wire 16 2" r [15:0] $end
$scope module r_reg $end
$var wire 16 3" data_in [15:0] $end
$var wire 1 4" load $end
$var wire 1 U sysclk $end
$var wire 1 V sysreset $end
$var reg 16 5" data_out [15:0] $end
$upscope $end
$upscope $end
$scope begin regs[11] $end
$var wire 16 6" r [15:0] $end
$scope module r_reg $end
$var wire 16 7" data_in [15:0] $end
$var wire 1 8" load $end
$var wire 1 U sysclk $end
$var wire 1 V sysreset $end
$var reg 16 9" data_out [15:0] $end
$upscope $end
$upscope $end
$scope begin regs[12] $end
$var wire 16 :" r [15:0] $end
$scope module r_reg $end
$var wire 16 ;" data_in [15:0] $end
$var wire 1 <" load $end
$var wire 1 U sysclk $end
$var wire 1 V sysreset $end
$var reg 16 =" data_out [15:0] $end
$upscope $end
$upscope $end
$scope begin regs[13] $end
$var wire 16 >" r [15:0] $end
$scope module r_reg $end
$var wire 16 ?" data_in [15:0] $end
$var wire 1 @" load $end
$var wire 1 U sysclk $end
$var wire 1 V sysreset $end
$var reg 16 A" data_out [15:0] $end
$upscope $end
$upscope $end
$scope begin regs[14] $end
$var wire 16 B" r [15:0] $end
$scope module r_reg $end
$var wire 16 C" data_in [15:0] $end
$var wire 1 D" load $end
$var wire 1 U sysclk $end
$var wire 1 V sysreset $end
$var reg 16 E" data_out [15:0] $end
$upscope $end
$upscope $end
$scope begin regs[15] $end
$var wire 16 F" r [15:0] $end
$scope module r_reg $end
$var wire 16 G" data_in [15:0] $end
$var wire 1 H" load $end
$var wire 1 U sysclk $end
$var wire 1 V sysreset $end
$var reg 16 I" data_out [15:0] $end
$upscope $end
$upscope $end
$scope begin data_in[0] $end
$var wire 16 J" d [15:0] $end
$upscope $end
$scope begin data_in[1] $end
$var wire 16 K" d [15:0] $end
$upscope $end
$scope begin data_in[2] $end
$var wire 16 L" d [15:0] $end
$upscope $end
$scope begin data_in[3] $end
$var wire 16 M" d [15:0] $end
$upscope $end
$scope begin data_in[4] $end
$var wire 16 N" d [15:0] $end
$upscope $end
$scope begin data_in[5] $end
$var wire 16 O" d [15:0] $end
$upscope $end
$scope begin data_in[6] $end
$var wire 16 P" d [15:0] $end
$upscope $end
$scope begin data_in[7] $end
$var wire 16 Q" d [15:0] $end
$upscope $end
$scope begin data_in[8] $end
$var wire 16 R" d [15:0] $end
$upscope $end
$scope begin data_in[9] $end
$var wire 16 S" d [15:0] $end
$upscope $end
$scope begin data_in[10] $end
$var wire 16 T" d [15:0] $end
$upscope $end
$scope begin data_in[11] $end
$var wire 16 U" d [15:0] $end
$upscope $end
$scope begin data_in[12] $end
$var wire 16 V" d [15:0] $end
$upscope $end
$scope begin data_in[13] $end
$var wire 16 W" d [15:0] $end
$upscope $end
$scope begin data_in[14] $end
$var wire 16 X" d [15:0] $end
$upscope $end
$scope begin data_in[15] $end
$var wire 16 Y" d [15:0] $end
$upscope $end
$upscope $end
$scope module utx $end
$var wire 1 Z" load_data $end
$var wire 8 [" parallel_in [7:0] $end
$var wire 1 ( tx_busy $end
$var wire 1 ! tx_line $end
$var wire 1 \" uart_sample_clk $end
$var reg 6 ]" sample_cnt [5:0] $end
$var reg 9 ^" tx_shifter [8:0] $end
$upscope $end
$scope begin regs[0] $end
$var wire 16 _" r [15:0] $end
$upscope $end
$scope begin regs[1] $end
$var wire 16 `" r [15:0] $end
$upscope $end
$scope begin regs[2] $end
$var wire 16 a" r [15:0] $end
$upscope $end
$scope begin regs[3] $end
$var wire 16 b" r [15:0] $end
$upscope $end
$scope begin regs[4] $end
$var wire 16 c" r [15:0] $end
$upscope $end
$scope begin regs[5] $end
$var wire 16 d" r [15:0] $end
$upscope $end
$scope begin regs[6] $end
$var wire 16 e" r [15:0] $end
$upscope $end
$scope begin regs[7] $end
$var wire 16 f" r [15:0] $end
$upscope $end
$scope begin regs[8] $end
$var wire 16 g" r [15:0] $end
$upscope $end
$scope begin regs[9] $end
$var wire 16 h" r [15:0] $end
$upscope $end
$scope begin regs[10] $end
$var wire 16 i" r [15:0] $end
$upscope $end
$scope begin regs[11] $end
$var wire 16 j" r [15:0] $end
$upscope $end
$scope begin regs[12] $end
$var wire 16 k" r [15:0] $end
$upscope $end
$scope begin regs[13] $end
$var wire 16 l" r [15:0] $end
$upscope $end
$scope begin regs[14] $end
$var wire 16 m" r [15:0] $end
$upscope $end
$scope begin regs[15] $end
$var wire 16 n" r [15:0] $end
$upscope $end
$scope begin data_in[0] $end
$var wire 16 o" d [15:0] $end
$upscope $end
$scope begin data_in[1] $end
$var wire 16 p" d [15:0] $end
$upscope $end
$scope begin data_in[2] $end
$var wire 16 q" d [15:0] $end
$upscope $end
$scope begin data_in[3] $end
$var wire 16 r" d [15:0] $end
$upscope $end
$scope begin data_in[4] $end
$var wire 16 s" d [15:0] $end
$upscope $end
$scope begin data_in[5] $end
$var wire 16 t" d [15:0] $end
$upscope $end
$scope begin data_in[6] $end
$var wire 16 u" d [15:0] $end
$upscope $end
$scope begin data_in[7] $end
$var wire 16 v" d [15:0] $end
$upscope $end
$scope begin data_in[8] $end
$var wire 16 w" d [15:0] $end
$upscope $end
$scope begin data_in[9] $end
$var wire 16 x" d [15:0] $end
$upscope $end
$scope begin data_in[10] $end
$var wire 16 y" d [15:0] $end
$upscope $end
$scope begin data_in[11] $end
$var wire 16 z" d [15:0] $end
$upscope $end
$scope begin data_in[12] $end
$var wire 16 {" d [15:0] $end
$upscope $end
$scope begin data_in[13] $end
$var wire 16 |" d [15:0] $end
$upscope $end
$scope begin data_in[14] $end
$var wire 16 }" d [15:0] $end
$upscope $end
$scope begin data_in[15] $end
$var wire 16 ~" d [15:0] $end
$upscope $end
$upscope $end
$scope module uart_v2_rx $end
$var wire 1 !# never $end
$var wire 8 "# parallel_out [7:0] $end
$var wire 1 ## rx_busy $end
$var wire 1 $# rx_line $end
$var wire 1 %# uart_sample_clk $end
$var reg 8 &# rx_shifter [7:0] $end
$var reg 3 '# rx_state [2:0] $end
$var reg 5 (# sample_cnt [4:0] $end
$upscope $end
$enddefinitions $end
#0
$dumpvars
b0 (#
bx '#
b0 &#
z%#
z$#
x##
b0 "#
0!#
bz ~"
bz }"
bz |"
bz {"
bz z"
bz y"
bz x"
bz w"
bz v"
bz u"
bz t"
bz s"
bz r"
bz q"
bz p"
b0 o"
bx n"
bx m"
bx l"
bx k"
bx j"
bx i"
bx h"
bx g"
bx f"
bx e"
bx d"
bx c"
bx b"
bx a"
bx `"
bx _"
b111111111 ^"
b0 ]"
0\"
bx ["
xZ"
bz Y"
bz X"
bz W"
bz V"
bz U"
bz T"
bz S"
bz R"
bz Q"
bz P"
bz O"
bz N"
bz M"
bz L"
bz K"
b0 J"
bx I"
xH"
bx G"
bx F"
bx E"
xD"
bx C"
bx B"
bx A"
x@"
bx ?"
bx >"
bx ="
x<"
bx ;"
bx :"
bx 9"
x8"
bx 7"
bx 6"
bx 5"
x4"
bx 3"
bx 2"
bx 1"
x0"
bx /"
bx ."
bx -"
x,"
bx +"
bx *"
bx )"
x("
bx '"
bx &"
bx %"
x$"
bx #"
bx ""
bx !"
x~
bx }
bx |
bx {
xz
bx y
bx x
bx w
xv
bx u
bx t
bx s
xr
bx q
bx p
bx o
xn
bx m
bx l
bx k
xj
bx i
bx h
bx g
bx f
0e
bx d
bx c
0b
0a
0`
bx _
x^
bx ]
x\
bx [
xZ
xY
bx X
bx W
0V
0U
b0xxxxxxxx T
b0xxxxxxxxxxxx S
bx0000 R
b0xxxxxxxxxxxxxxx Q
bx0 P
xO
bx N
xM
bx L
bx K
bx J
bx I
bx H
xG
1F
bx E
bx D
xC
b1xx0xx B
1A
bz0000000000000000 @
b1111111111111111 ?
1>
bx =
bx <
x;
x:
x9
x8
x7
bx 6
x5
bx 4
x3
bx 2
x1
bx 0
x/
bx .
bx -
0,
1+
0*
0)
0(
bx '
bx &
bz0000000000000000 %
bx $
bx #
bx "
1!
$end
#500
xA
xF
xa
xb
xe
x`
b1xxxxx B
1)
1U
#1000
0)
0U
#1085
1*
1\"
#1500
1)
1U
#2000
0)
0U
#2170
0*
0\"
#2500
1)
1U
#3000
17
0:
0C
1j
0n
0r
0v
0z
0~
0$"
0("
0,"
00"
04"
08"
0<"
0@"
0D"
0H"
0;
0O
09
08
b1 '
b1 L
0M
b0 N
b0 D
b0 i
b0 m
b0 q
b0 u
b0 y
b0 }
b0 #"
b0 '"
b0 +"
b0 /"
b0 3"
b0 7"
b0 ;"
b0 ?"
b0 C"
b0 G"
0Z"
b0 ["
0/
11
1A
1F
b10101000000001 #
b10101000000001 .
b0 E
0G
b0 H
b0 T
b0 n"
b0 m"
b0 l"
b0 k"
b0 j"
b0 i"
b0 h"
b0 g"
b0 f"
b0 e"
b0 d"
b0 c"
b0 b"
b0 a"
b0 `"
b0 S
b0 Q
b0 R
b0 P
b0 _"
b0 W
b0 J
b0 6
b0 g
b0 f
0`
b0 _
0^
b0 ]
0\
b0 [
0e
0Y
b0 0
0Z
b100000 B
b0 X
0a
0b
b0 d
b1 I
b0 "
b0 -
b0 <
b0 c
b0 I"
b0 F"
b0 E"
b0 B"
b0 A"
b0 >"
b0 ="
b0 :"
b0 9"
b0 6"
b0 5"
b0 2"
b0 1"
b0 ."
b0 -"
b0 *"
b0 )"
b0 &"
b0 %"
b0 ""
b0 !"
b0 |
15
b0 4
b0 {
b0 x
b0 w
b0 t
13
b0 2
b0 s
b0 p
b0 o
b0 l
b0 k
b0 h
b0 &
b0 K
0)
0U
1,
1V
#3255
1*
1\"
#3300
b10101000000001 $
b10101000000001 =
#3500
1)
1U
#4000
0)
0U
#4340
0*
0\"
#4500
1)
1U
#5000
0)
0U
0,
0V
#5425
1*
1\"
#5500
07
0j
14"
b10000000000 '
b10000000000 L
b1 N
b1 D
b1 i
b1 m
b1 q
b1 u
b1 y
b1 }
b1 #"
b1 '"
b1 +"
b1 /"
b1 3"
b1 7"
b1 ;"
b1 ?"
b1 C"
b1 G"
b1010 E
b1000000001 H
b1 T
b10011000000000 #
b10011000000000 .
b10101000000001 c
b1 d
b10 I
b1 "
b1 -
b1 <
1e
1\
1^
1M
1`
b100111 B
1)
1U
#5800
b10011000000000 $
b10011000000000 =
#6000
0)
0U
#6500
b0 D
b0 i
b0 m
b0 q
b0 u
b0 y
b0 }
b0 #"
b0 '"
b0 +"
b0 /"
b0 3"
b0 7"
b0 ;"
b0 ?"
b0 C"
b0 G"
10"
04"
b1001001000000 #
b1001001000000 .
b1000000000 '
b1000000000 L
b0 N
b1001 E
b1000000000 H
b0 T
b1 i"
0e
1Z
b110111 B
b10 d
b11 I
b10 "
b10 -
b10 <
b10011000000000 c
b1 5"
b1 2"
b10000000000000000000000000000000000000000000000000000000000000000000000000000000000000000000000000000000000000000000000000000000000000000000000000000000000000000 &
b10000000000000000000000000000000000000000000000000000000000000000000000000000000000000000000000000000000000000000000000000000000000000000000000000000000000000000 K
1)
1U
#6510
0*
0\"
#6800
b1001001000000 $
b1001001000000 =
#7000
0)
0U
#7500
b1000000 D
b1000000 i
b1000000 m
b1000000 q
b1000000 u
b1000000 y
b1000000 }
b1000000 #"
b1000000 '"
b1000000 +"
b1000000 /"
b1000000 3"
b1000000 7"
b1000000 ;"
b1000000 ?"
b1000000 C"
b1000000 G"
1z
00"
b1011000000001 #
b1011000000001 .
b10000 '
b10000 L
b100 E
b1001000000 H
b1000000 T
b1001001000000 c
b11 d
b100 I
b11 "
b11 -
b11 <
1)
1U
#7595
1*
1\"
#7800
b1011000000001 $
b1011000000001 =
#8000
0)
0U
#8500
b1 D
b1 i
b1 m
b1 q
b1 u
b1 y
b1 }
b1 #"
b1 '"
b1 +"
b1 /"
b1 3"
b1 7"
b1 ;"
b1 ?"
b1 C"
b1 G"
b100 #
b100 .
0z
1~
b100000 '
b100000 L
b1 N
b101 E
b1000000001 H
b1 T
b1000000 c"
b100 d
b101 I
b100 "
b100 -
b100 <
b1011000000001 c
b1000000 {
05
b1000000 4
b1000000 x
b10000000000000000000000000000000000000000000000000000000000000000000000000000000000000000010000000000000000000000000000000000000000000000000000000000000000000000 &
b10000000000000000000000000000000000000000000000000000000000000000000000000000000000000000010000000000000000000000000000000000000000000000000000000000000000000000 K
1)
1U
#8680
0*
0\"
#8800
b100 $
b100 =
#9000
0)
0U
#9500
b1000000 D
b1000000 i
b1000000 m
b1000000 q
b1000000 u
b1000000 y
b1000000 }
b1000000 #"
b1000000 '"
b1000000 +"
b1000000 /"
b1000000 3"
b1000000 7"
b1000000 ;"
b1000000 ?"
b1000000 C"
b1000000 G"
b1101010011 #
b1101010011 .
17
1j
0~
b1 '
b1 L
b100 N
b1 d"
b0 E
b100 H
b100 T
b1 !"
b1 |
b10000000000000000000000000000000000000000000000000000000000000000000000000000000100000000010000000000000000000000000000000000000000000000000000000000000000000000 &
b10000000000000000000000000000000000000000000000000000000000000000000000000000000100000000010000000000000000000000000000000000000000000000000000000000000000000000 K
b1000001 4
b100 c
b101 d
b110 I
b101 "
b101 -
b101 <
0^
b110110 B
b1000000 ]
1)
1U
#9765
1*
1\"
#9800
b1101010011 $
b1101010011 =
#10000
0)
0U
#10500
b10101101010011 #
b10101101010011 .
b100 D
b100 i
b100 m
b100 q
b100 u
b100 y
b100 }
b100 #"
b100 '"
b100 +"
b100 /"
b100 3"
b100 7"
b100 ;"
b100 ?"
b100 C"
b100 G"
0M
b11 N
b1101010011 H
b1010011 T
b100 S
b100000 Q
b10000000000 R
b10000000 P
b1000000 _"
01
b1000000 W
b1000000 J
b1000001 ]
1e
b110 d
b111 I
b110 "
b110 -
b110 <
b1101010011 c
b1000000 k
b1000000 h
b10000000000000000000000000000000000000000000000000000000000000000000000000000000100000000010000000000000000000000000000000000000000000000000000000000000001000000 &
b10000000000000000000000000000000000000000000000000000000000000000000000000000000100000000010000000000000000000000000000000000000000000000000000000000000001000000 K
b1000000 0
1)
1U
#10800
b10101101010011 $
b10101101010011 =
#10850
0*
0\"
#11000
0)
0U
#11500
b0 D
b0 i
b0 m
b0 q
b0 u
b0 y
b0 }
b0 #"
b0 '"
b0 +"
b0 /"
b0 3"
b0 7"
b0 ;"
b0 ?"
b0 C"
b0 G"
b1000000001 #
b1000000001 .
07
0j
14"
b10000000000 '
b10000000000 L
b0 S
b10 Q
b1000000 R
b1000 P
b100 _"
b100 W
b100 J
b1010 E
b100 k
b100 h
b10000000000000000000000000000000000000000000000000000000000000000000000000000000100000000010000000000000000000000000000000000000000000000000000000000000000000100 &
b10000000000000000000000000000000000000000000000000000000000000000000000000000000100000000010000000000000000000000000000000000000000000000000000000000000000000100 K
b100 0
b10101101010011 c
b111 d
b1000 I
b111 "
b111 -
b111 <
0Z
b100110 B
b1000000 X
b1000000 g
b1000000 f
1)
1U
#11800
b1000000001 $
b1000000001 =
#11935
1*
1\"
#12000
0)
0U
#12500
b1 D
b1 i
b1 m
b1 q
b1 u
b1 y
b1 }
b1 #"
b1 '"
b1 +"
b1 /"
b1 3"
b1 7"
b1 ;"
b1 ?"
b1 C"
b1 G"
b10001000000 #
b10001000000 .
17
1j
04"
b1 '
b1 L
1M
b1 N
b0 E
b1000000001 H
b1 T
b0 i"
b100 g
b100 f
0e
b100 X
b1000 d
b1001 I
b1000 "
b1000 -
b1000 <
b1000000001 c
b0 5"
b0 2"
b100000000010000000000000000000000000000000000000000000000000000000000000000000100 &
b100000000010000000000000000000000000000000000000000000000000000000000000000000100 K
1)
1U
#12800
b10001000000 $
b10001000000 =
#13000
0)
0U
#13020
0*
0\"
#13500
b0 D
b0 i
b0 m
b0 q
b0 u
b0 y
b0 }
b0 #"
b0 '"
b0 +"
b0 /"
b0 3"
b0 7"
b0 ;"
b0 ?"
b0 C"
b0 G"
b1100100000000000 #
b1100100000000000 .
0j
1n
b10 '
b10 L
0M
b0 N
b0 Q
b10000 R
b10 P
b1 _"
b1 W
b1 J
b1 E
b1000000 H
b1000000 T
b1 k
b1 h
b100000000010000000000000000000000000000000000000000000000000000000000000000000001 &
b100000000010000000000000000000000000000000000000000000000000000000000000000000001 K
b1 0
b10001000000 c
b1001 d
b1010 I
b1001 "
b1001 -
b1001 <
1e
1)
1U
#13800
b1100100000000000 $
b1100100000000000 =
#14000
0)
0U
#14105
1*
1\"
#14500
b1110010000000010 #
b1110010000000010 .
07
0n
b0 '
b0 L
b1 D
b1 i
b1 m
b1 q
b1 u
b1 y
b1 }
b1 #"
b1 '"
b1 +"
b1 /"
b1 3"
b1 7"
b1 ;"
b1 ?"
b1 C"
b1 G"
b110010 E
b0 H
b0 T
b1 g
b1 f
b1 X
b1010 d
b1011 I
b1010 "
b1010 -
b1010 <
b1100100000000000 c
1)
1U
#14800
b1110010000000010 $
b1110010000000010 =
#15000
0)
0U
#15190
0*
0\"
#15500
b1000 #
b1000 .
18
1M
b10 N
b0 D
b0 i
b0 m
b0 q
b0 u
b0 y
b0 }
b0 #"
b0 '"
b0 +"
b0 /"
b0 3"
b0 7"
b0 ;"
b0 ?"
b0 C"
b0 G"
b111001 E
b10 H
b10 T
b1110010000000010 c
b1011 d
b1100 I
b1011 "
b1011 -
b1011 <
0e
1)
1U
#15800
b1000 $
b1000 =
#16000
0)
0U
#16275
1*
1\"
#16500
b10001110100000 #
b10001110100000 .
17
b0 D
b0 i
b0 m
b0 q
b0 u
b0 y
b0 }
b0 #"
b0 '"
b0 +"
b0 /"
b0 3"
b0 7"
b0 ;"
b0 ?"
b0 C"
b0 G"
1j
08
b1 '
b1 L
0M
b1000 N
b0 E
b1000 H
b1000 T
b1100 d
b1101 I
b1100 "
b1100 -
b1100 <
b1000 c
1)
1U
#16800
b10001110100000 $
b10001110100000 =
#17000
0)
0U
#17360
0*
0\"
#17500
b1010101 #
b1010101 .
b10001110100000 D
b10001110100000 i
b10001110100000 m
b10001110100000 q
b10001110100000 u
b10001110100000 y
b10001110100000 }
b10001110100000 #"
b10001110100000 '"
b10001110100000 +"
b10001110100000 /"
b10001110100000 3"
b10001110100000 7"
b10001110100000 ;"
b10001110100000 ?"
b10001110100000 C"
b10001110100000 G"
07
0j
1,"
b100000000 '
b100000000 L
b0 N
b0 R
b0 P
b0 _"
11
b0 W
b0 J
b1000 E
1G
b1110100000 H
b10100000 T
b0 k
b0 h
b100000000010000000000000000000000000000000000000000000000000000000000000000000000 &
b100000000010000000000000000000000000000000000000000000000000000000000000000000000 K
b0 0
b10001110100000 c
b1101 d
b1110 I
b1101 "
b1101 -
b1101 <
1e
1)
1U
#17800
b1010101 D
b1010101 i
b1010101 m
b1010101 q
b1010101 u
b1010101 y
b1010101 }
b1010101 #"
b1010101 '"
b1010101 +"
b1010101 /"
b1010101 3"
b1010101 7"
b1010101 ;"
b1010101 ?"
b1010101 C"
b1010101 G"
b1010101 $
b1010101 =
#18000
0)
0U
#18445
1*
1\"
#18500
bx D
bx i
bx m
bx q
bx u
bx y
bx }
bx #"
bx '"
bx +"
bx /"
bx 3"
bx 7"
bx ;"
bx ?"
bx C"
bx G"
b10011000000001 #
b10011000000001 .
0,"
b0 '
b0 L
1M
b101 N
b1010101 ["
0A
0F
b0 E
0G
b1010101 H
b1010101 T
b1010101 g"
b0 g
b0 f
0e
1Z
b110110 B
b0 X
1b
b1110 d
b1111 I
b1110 "
b1110 -
b1110 <
b1010101 c
b1010101 -"
b1010101 *"
b101010100000000000000000000000000000000000000000000000100000000010000000000000000000000000000000000000000000000000000000000000000000000 &
b101010100000000000000000000000000000000000000000000000100000000010000000000000000000000000000000000000000000000000000000000000000000000 K
1)
1U
#18800
b10011000000001 $
b10011000000001 =
#19000
0)
0U
#19500
b1 D
b1 i
b1 m
b1 q
b1 u
b1 y
b1 }
b1 #"
b1 '"
b1 +"
b1 /"
b1 3"
b1 7"
b1 ;"
b1 ?"
b1 C"
b1 G"
b1000000001 #
b1000000001 .
10"
b1 N
b1000000000 '
b1000000000 L
b1001 E
b1000000001 H
b1 T
1A
1F
b10011000000001 c
0b
b1111 d
b10000 I
b1111 "
b1111 -
b1111 <
1)
1U
#19530
0*
0\"
#19800
b1000000001 $
b1000000001 =
#20000
0)
0U
#20500
b10001000000 #
b10001000000 .
17
1j
00"
b1 '
b1 L
1Z"
b0 E
b1 h"
b10000 d
b10001 I
b10000 "
b10000 -
b10000 <
b1000000001 c
b1 1"
b1 ."
b1000000000101010100000000000000000000000000000000000000000000000100000000010000000000000000000000000000000000000000000000000000000000000000000000 &
b1000000000101010100000000000000000000000000000000000000000000000100000000010000000000000000000000000000000000000000000000000000000000000000000000 K
1)
1U
#20615
b1 J"
0!
b101000 ]"
bz0000000000000001 %
bz0000000000000001 @
b1 o"
1(
b10101010 ^"
1*
1\"
#20800
b10001000000 $
b10001000000 =
#21000
0)
0U
#21500
b10101000000100 #
b10101000000100 .
0j
1n
b10 '
b10 L
0M
b0 N
b10000 R
b10 P
b1 _"
01
b1 W
b1 J
b1 E
b1000000 H
b1000000 T
b1 k
b1 h
b1000000000101010100000000000000000000000000000000000000000000000100000000010000000000000000000000000000000000000000000000000000000000000000000001 &
b1000000000101010100000000000000000000000000000000000000000000000100000000010000000000000000000000000000000000000000000000000000000000000000000001 K
b1 0
b10001000000 c
b10001 d
b10010 I
b10001 "
b10001 -
b10001 <
1e
1)
1U
#21700
0*
0\"
#21800
b10101000000100 $
b10101000000100 =
#22000
0)
0U
#22500
b1001100100000 #
b1001100100000 .
b100 D
b100 i
b100 m
b100 q
b100 u
b100 y
b100 }
b100 #"
b100 '"
b100 +"
b100 /"
b100 3"
b100 7"
b100 ;"
b100 ?"
b100 C"
b100 G"
07
0n
14"
b10000000000 '
b10000000000 L
b100 N
b1010 E
b1000000100 H
b100 T
b1 `"
b0 W
b1 6
b1 g
b1 f
0Z
b100110 B
b1 X
b10010 d
b10011 I
b10010 "
b10010 -
b10010 <
b10101000000100 c
b1 o
b1 l
b1000000000101010100000000000000000000000000000000000000000000000100000000010000000000000000000000000000000000000000000000000000010000000000000001 &
b1000000000101010100000000000000000000000000000000000000000000000100000000010000000000000000000000000000000000000000000000000000010000000000000001 K
b10 0
1)
1U
#22785
b100111 ]"
1*
1\"
#22800
b1001100100000 $
b1001100100000 =
#23000
0)
0U
#23500
b1000001 D
b1000001 i
b1000001 m
b1000001 q
b1000001 u
b1000001 y
b1000001 }
b1000001 #"
b1000001 '"
b1000001 +"
b1000001 /"
b1000001 3"
b1000001 7"
b1000001 ;"
b1000001 ?"
b1000001 C"
b1000001 G"
b1110000000000010 #
b1110000000000010 .
1z
04"
b10000 '
b10000 L
b0 N
b100 i"
b100 E
b1100100000 H
b100000 T
b100 5"
b100 2"
b1000000000000000001000000000101010100000000000000000000000000000000000000000000000100000000010000000000000000000000000000000000000000000000000000010000000000000001 &
b1000000000000000001000000000101010100000000000000000000000000000000000000000000000100000000010000000000000000000000000000000000000000000000000000010000000000000001 K
b1001100100000 c
b10011 d
b10100 I
b10011 "
b10011 -
b10011 <
0e
b10 X
b0 g
0`
b100010 B
b1 _
1)
1U
#23800
b1110000000000010 $
b1110000000000010 =
#23870
0*
0\"
#24000
0)
0U
#24500
b10000 #
b10000 .
b0 D
b0 i
b0 m
b0 q
b0 u
b0 y
b0 }
b0 #"
b0 '"
b0 +"
b0 /"
b0 3"
b0 7"
b0 ;"
b0 ?"
b0 C"
b0 G"
0z
19
b0 '
b0 L
b10 N
b111000 E
b10 H
b10 T
b1000001 c"
b10100 d
b10101 I
b10100 "
b10100 -
b10100 <
b1110000000000010 c
b1000001 {
b1000010 4
b1000001 x
b1000000000000000001000000000101010100000000000000000000000000000000000000000000000100000000010000010000000000000000000000000000000000000000000000010000000000000001 &
b1000000000000000001000000000101010100000000000000000000000000000000000000000000000100000000010000010000000000000000000000000000000000000000000000010000000000000001 K
1)
1U
#24800
b10000 $
b10000 =
#24955
b100110 ]"
1*
1\"
#25000
0)
0U
