trunk/DE0_nano/icarus/testbench.vcd
$date
	Fri Dec 05 00:18:25 2014
$end
$version
	Icarus Verilog
$end
$timescale
	1ns
$end
$scope module testbench $end
$var wire 1 ! async_out $end
$var wire 16 " code_addr [15:0] $end
$var wire 16 # code_fetched [15:0] $end
$var wire 1 $ code_ready $end
$var wire 256 % data_in_flat [255:0] $end
$var wire 256 & r_flat [255:0] $end
$var wire 16 ' r_load [15:0] $end
$var wire 1 ( txbsy $end
$var reg 1 ) clk50m $end
$var reg 1 * clk_async $end
$var reg 16 + code_in [15:0] $end
$var reg 8 , code_ready_cnt [7:0] $end
$var reg 16 - compare_addr [15:0] $end
$var reg 16 . compare_exr [15:0] $end
$var integer 32 / junk [31:0] $end
$var integer 32 0 serial_file [31:0] $end
$var reg 1 1 sysreset $end
$var integer 32 2 trace_compare_file [31:0] $end
$var integer 32 3 trace_file [31:0] $end
$scope module rom $end
$var wire 16 4 addr [15:0] $end
$var wire 16 5 data [15:0] $end
$upscope $end
$scope module mcu $end
$var wire 1 6 ad0_carry_out_comb $end
$var wire 17 7 ad0_comb [16:0] $end
$var wire 1 8 ad0_zero_comb $end
$var wire 16 9 ad1_comb [15:0] $end
$var wire 1 : ad1_zero_comb $end
$var wire 16 ; ad2_comb [15:0] $end
$var wire 1 < ad2_zero_comb $end
$var wire 16 = and0_comb [15:0] $end
$var wire 1 > binary_operator0 $end
$var wire 1 ? bn_operator $end
$var wire 1 @ br_operator $end
$var wire 1 A branch_accept $end
$var wire 1 B clrf_operator $end
$var wire 16 C code_addr [15:0] $end
$var wire 16 D code_in [15:0] $end
$var wire 1 $ code_ready $end
$var wire 16 E const_neg1 [15:0] $end
$var wire 256 F data_in_flat [255:0] $end
$var wire 1 G enable_exec $end
$var wire 16 H flags [15:0] $end
$var wire 1 I hold_ipr $end
$var wire 1 J load_exr $end
$var wire 1 K load_ipr $end
$var wire 16 L muxa_comb [15:0] $end
$var wire 6 M muxa_dest_addr [5:0] $end
$var wire 1 N muxa_dest_return_addr $end
$var wire 1 O muxa_do_copy $end
$var wire 1 P muxa_source_imm16 $end
$var wire 10 Q muxa_src_addr [9:0] $end
$var wire 16 R next_code_addr [15:0] $end
$var wire 16 S or0_comb [15:0] $end
$var wire 256 T r_flat [255:0] $end
$var wire 16 U r_load [15:0] $end
$var wire 1 V random_fetch_operator $end
$var wire 1 W return_operator $end
$var wire 1 X selected_flag $end
$var wire 4 Y selected_flag_addr [3:0] $end
$var wire 1 Z setf_operator $end
$var wire 16 [ sh1l0 [15:0] $end
$var wire 16 \ sh1r0 [15:0] $end
$var wire 16 ] sh4l0 [15:0] $end
$var wire 16 ^ sh4r0 [15:0] $end
$var wire 16 _ small_constant [15:0] $end
$var wire 1 ` sysclk $end
$var wire 1 a sysreset $end
$var wire 16 b xor0_comb [15:0] $end
$var reg 16 c ad0 [15:0] $end
$var reg 1 d ad0_carry_flag $end
$var reg 1 e ad0_zero_flag $end
$var reg 16 f ad1 [15:0] $end
$var reg 1 g ad1_zero_flag $end
$var reg 16 h ad2 [15:0] $end
$var reg 1 i ad2_zero_flag $end
$var reg 16 j and0 [15:0] $end
$var reg 1 k and0_zero_flag $end
$var reg 1 l branching_cycle $end
$var reg 1 m const16cycle1 $end
$var reg 16 n exr [15:0] $end
$var reg 16 o ipr [15:0] $end
$var reg 1 p load_carry $end
$var reg 16 q or0 [15:0] $end
$var reg 16 r random_fetch_addr [15:0] $end
$var reg 1 s random_fetch_cycle1 $end
$var reg 1 t random_fetch_cycle2 $end
$var reg 16 u random_fetch_result [15:0] $end
$var reg 16 v return_addr [15:0] $end
$var reg 16 w xor0 [15:0] $end
$scope begin regs[0] $end
$var wire 16 x r [15:0] $end
$scope module r_reg $end
$var wire 16 y data_in [15:0] $end
$var wire 1 z load $end
$var wire 1 ` sysclk $end
$var wire 1 a sysreset $end
$var reg 16 { data_out [15:0] $end
$upscope $end
$upscope $end
$scope begin regs[1] $end
$var wire 16 | r [15:0] $end
$scope module r_reg $end
$var wire 16 } data_in [15:0] $end
$var wire 1 ~ load $end
$var wire 1 ` sysclk $end
$var wire 1 a sysreset $end
$var reg 16 !" data_out [15:0] $end
$upscope $end
$upscope $end
$scope begin regs[2] $end
$var wire 16 "" r [15:0] $end
$scope module r_reg $end
$var wire 16 #" data_in [15:0] $end
$var wire 1 $" load $end
$var wire 1 ` sysclk $end
$var wire 1 a sysreset $end
$var reg 16 %" data_out [15:0] $end
$upscope $end
$upscope $end
$scope begin regs[3] $end
$var wire 16 &" r [15:0] $end
$scope module r_reg $end
$var wire 16 '" data_in [15:0] $end
$var wire 1 (" load $end
$var wire 1 ` sysclk $end
$var wire 1 a sysreset $end
$var reg 16 )" data_out [15:0] $end
$upscope $end
$upscope $end
$scope begin regs[4] $end
$var wire 16 *" r [15:0] $end
$scope module r_reg $end
$var wire 16 +" data_in [15:0] $end
$var wire 1 ," load $end
$var wire 1 ` sysclk $end
$var wire 1 a sysreset $end
$var reg 16 -" data_out [15:0] $end
$upscope $end
$upscope $end
$scope begin regs[5] $end
$var wire 16 ." r [15:0] $end
$scope module r_reg $end
$var wire 16 /" data_in [15:0] $end
$var wire 1 0" load $end
$var wire 1 ` sysclk $end
$var wire 1 a sysreset $end
$var reg 16 1" data_out [15:0] $end
$upscope $end
$upscope $end
$scope begin regs[6] $end
$var wire 16 2" r [15:0] $end
$scope module r_reg $end
$var wire 16 3" data_in [15:0] $end
$var wire 1 4" load $end
$var wire 1 ` sysclk $end
$var wire 1 a sysreset $end
$var reg 16 5" data_out [15:0] $end
$upscope $end
$upscope $end
$scope begin regs[7] $end
$var wire 16 6" r [15:0] $end
$scope module r_reg $end
$var wire 16 7" data_in [15:0] $end
$var wire 1 8" load $end
$var wire 1 ` sysclk $end
$var wire 1 a sysreset $end
$var reg 16 9" data_out [15:0] $end
$upscope $end
$upscope $end
$scope begin regs[8] $end
$var wire 16 :" r [15:0] $end
$scope module r_reg $end
$var wire 16 ;" data_in [15:0] $end
$var wire 1 <" load $end
$var wire 1 ` sysclk $end
$var wire 1 a sysreset $end
$var reg 16 =" data_out [15:0] $end
$upscope $end
$upscope $end
$scope begin regs[9] $end
$var wire 16 >" r [15:0] $end
$scope module r_reg $end
$var wire 16 ?" data_in [15:0] $end
$var wire 1 @" load $end
$var wire 1 ` sysclk $end
$var wire 1 a sysreset $end
$var reg 16 A" data_out [15:0] $end
$upscope $end
$upscope $end
$scope begin regs[10] $end
$var wire 16 B" r [15:0] $end
$scope module r_reg $end
$var wire 16 C" data_in [15:0] $end
$var wire 1 D" load $end
$var wire 1 ` sysclk $end
$var wire 1 a sysreset $end
$var reg 16 E" data_out [15:0] $end
$upscope $end
$upscope $end
$scope begin regs[11] $end
$var wire 16 F" r [15:0] $end
$scope module r_reg $end
$var wire 16 G" data_in [15:0] $end
$var wire 1 H" load $end
$var wire 1 ` sysclk $end
$var wire 1 a sysreset $end
$var reg 16 I" data_out [15:0] $end
$upscope $end
$upscope $end
$scope begin regs[12] $end
$var wire 16 J" r [15:0] $end
$scope module r_reg $end
$var wire 16 K" data_in [15:0] $end
$var wire 1 L" load $end
$var wire 1 ` sysclk $end
$var wire 1 a sysreset $end
$var reg 16 M" data_out [15:0] $end
$upscope $end
$upscope $end
$scope begin regs[13] $end
$var wire 16 N" r [15:0] $end
$scope module r_reg $end
$var wire 16 O" data_in [15:0] $end
$var wire 1 P" load $end
$var wire 1 ` sysclk $end
$var wire 1 a sysreset $end
$var reg 16 Q" data_out [15:0] $end
$upscope $end
$upscope $end
$scope begin regs[14] $end
$var wire 16 R" r [15:0] $end
$scope module r_reg $end
$var wire 16 S" data_in [15:0] $end
$var wire 1 T" load $end
$var wire 1 ` sysclk $end
$var wire 1 a sysreset $end
$var reg 16 U" data_out [15:0] $end
$upscope $end
$upscope $end
$scope begin regs[15] $end
$var wire 16 V" r [15:0] $end
$scope module r_reg $end
$var wire 16 W" data_in [15:0] $end
$var wire 1 X" load $end
$var wire 1 ` sysclk $end
$var wire 1 a sysreset $end
$var reg 16 Y" data_out [15:0] $end
$upscope $end
$upscope $end
$scope begin data_in[0] $end
$var wire 16 Z" d [15:0] $end
$upscope $end
$scope begin data_in[1] $end
$var wire 16 [" d [15:0] $end
$upscope $end
$scope begin data_in[2] $end
$var wire 16 \" d [15:0] $end
$upscope $end
$scope begin data_in[3] $end
$var wire 16 ]" d [15:0] $end
$upscope $end
$scope begin data_in[4] $end
$var wire 16 ^" d [15:0] $end
$upscope $end
$scope begin data_in[5] $end
$var wire 16 _" d [15:0] $end
$upscope $end
$scope begin data_in[6] $end
$var wire 16 `" d [15:0] $end
$upscope $end
$scope begin data_in[7] $end
$var wire 16 a" d [15:0] $end
$upscope $end
$scope begin data_in[8] $end
$var wire 16 b" d [15:0] $end
$upscope $end
$scope begin data_in[9] $end
$var wire 16 c" d [15:0] $end
$upscope $end
$scope begin data_in[10] $end
$var wire 16 d" d [15:0] $end
$upscope $end
$scope begin data_in[11] $end
$var wire 16 e" d [15:0] $end
$upscope $end
$scope begin data_in[12] $end
$var wire 16 f" d [15:0] $end
$upscope $end
$scope begin data_in[13] $end
$var wire 16 g" d [15:0] $end
$upscope $end
$scope begin data_in[14] $end
$var wire 16 h" d [15:0] $end
$upscope $end
$scope begin data_in[15] $end
$var wire 16 i" d [15:0] $end
$upscope $end
$upscope $end
$scope module utx $end
$var wire 1 j" load_data $end
$var wire 8 k" parallel_in [7:0] $end
$var wire 1 ( tx_busy $end
$var wire 1 ! tx_line $end
$var wire 1 l" uart_sample_clk $end
$var reg 6 m" sample_cnt [5:0] $end
$var reg 9 n" tx_shifter [8:0] $end
$upscope $end
$scope begin regs[0] $end
$var wire 16 o" r [15:0] $end
$upscope $end
$scope begin regs[1] $end
$var wire 16 p" r [15:0] $end
$upscope $end
$scope begin regs[2] $end
$var wire 16 q" r [15:0] $end
$upscope $end
$scope begin regs[3] $end
$var wire 16 r" r [15:0] $end
$upscope $end
$scope begin regs[4] $end
$var wire 16 s" r [15:0] $end
$upscope $end
$scope begin regs[5] $end
$var wire 16 t" r [15:0] $end
$upscope $end
$scope begin regs[6] $end
$var wire 16 u" r [15:0] $end
$upscope $end
$scope begin regs[7] $end
$var wire 16 v" r [15:0] $end
$upscope $end
$scope begin regs[8] $end
$var wire 16 w" r [15:0] $end
$upscope $end
$scope begin regs[9] $end
$var wire 16 x" r [15:0] $end
$upscope $end
$scope begin regs[10] $end
$var wire 16 y" r [15:0] $end
$upscope $end
$scope begin regs[11] $end
$var wire 16 z" r [15:0] $end
$upscope $end
$scope begin regs[12] $end
$var wire 16 {" r [15:0] $end
$upscope $end
$scope begin regs[13] $end
$var wire 16 |" r [15:0] $end
$upscope $end
$scope begin regs[14] $end
$var wire 16 }" r [15:0] $end
$upscope $end
$scope begin regs[15] $end
$var wire 16 ~" r [15:0] $end
$upscope $end
$scope begin data_in[0] $end
$var wire 16 !# d [15:0] $end
$upscope $end
$scope begin data_in[1] $end
$var wire 16 "# d [15:0] $end
$upscope $end
$scope begin data_in[2] $end
$var wire 16 ## d [15:0] $end
$upscope $end
$scope begin data_in[3] $end
$var wire 16 $# d [15:0] $end
$upscope $end
$scope begin data_in[4] $end
$var wire 16 %# d [15:0] $end
$upscope $end
$scope begin data_in[5] $end
$var wire 16 &# d [15:0] $end
$upscope $end
$scope begin data_in[6] $end
$var wire 16 '# d [15:0] $end
$upscope $end
$scope begin data_in[7] $end
$var wire 16 (# d [15:0] $end
$upscope $end
$scope begin data_in[8] $end
$var wire 16 )# d [15:0] $end
$upscope $end
$scope begin data_in[9] $end
$var wire 16 *# d [15:0] $end
$upscope $end
$scope begin data_in[10] $end
$var wire 16 +# d [15:0] $end
$upscope $end
$scope begin data_in[11] $end
$var wire 16 ,# d [15:0] $end
$upscope $end
$scope begin data_in[12] $end
$var wire 16 -# d [15:0] $end
$upscope $end
$scope begin data_in[13] $end
$var wire 16 .# d [15:0] $end
$upscope $end
$scope begin data_in[14] $end
$var wire 16 /# d [15:0] $end
$upscope $end
$scope begin data_in[15] $end
$var wire 16 0# d [15:0] $end
$upscope $end
$upscope $end
$scope module uart_v2_rx $end
$var wire 1 1# never $end
$var wire 8 2# parallel_out [7:0] $end
$var wire 1 3# rx_busy $end
$var wire 1 4# rx_line $end
$var wire 1 5# uart_sample_clk $end
$var reg 8 6# rx_shifter [7:0] $end
$var reg 3 7# rx_state [2:0] $end
$var reg 5 8# sample_cnt [4:0] $end
$upscope $end
$enddefinitions $end
#0
$dumpvars
b0 8#
bx 7#
b0 6#
z5#
z4#
x3#
b0 2#
01#
bz 0#
bz /#
bz .#
bz -#
bz ,#
bz +#
bz *#
bz )#
bz (#
bz '#
bz &#
bz %#
bz $#
bz ##
bz "#
b0 !#
bx ~"
bx }"
bx |"
bx {"
bx z"
bx y"
bx x"
bx w"
bx v"
bx u"
bx t"
bx s"
bx r"
bx q"
bx p"
bx o"
b111111111 n"
b0 m"
0l"
bx k"
xj"
bz i"
bz h"
bz g"
bz f"
bz e"
bz d"
bz c"
bz b"
bz a"
bz `"
bz _"
bz ^"
bz ]"
bz \"
bz ["
b0 Z"
bx Y"
0X"
bx W"
bx V"
bx U"
0T"
bx S"
bx R"
bx Q"
0P"
bx O"
bx N"
bx M"
0L"
bx K"
bx J"
bx I"
0H"
bx G"
bx F"
bx E"
0D"
bx C"
bx B"
bx A"
0@"
bx ?"
bx >"
bx ="
0<"
bx ;"
bx :"
bx 9"
08"
bx 7"
bx 6"
bx 5"
04"
bx 3"
bx 2"
bx 1"
00"
bx /"
bx ."
bx -"
0,"
bx +"
bx *"
bx )"
0("
bx '"
bx &"
bx %"
0$"
bx #"
bx ""
bx !"
0~
bx }
bx |
bx {
0z
bx y
bx x
bx w
b0 v
b0 u
0t
0s
b0 r
bx q
0p
b0 o
bx n
0m
0l
0k
bx j
xi
bx h
xg
bx f
xe
xd
bx c
bx b
0a
0`
b0xxxxxxxx _
b0xxxxxxxxxxxx ^
bx0000 ]
b0xxxxxxxxxxxxxxx \
bx0 [
0Z
bx Y
xX
0W
0V
b0 U
bx T
bx S
b1 R
bx Q
0P
0O
0N
bx M
bx L
0K
0J
1I
b1xx0xx H
0G
bz0000000000000000 F
b1111111111111111 E
bx D
b0 C
0B
0A
0@
0?
0>
bx =
x<
bx ;
x:
bx 9
x8
bx 7
x6
b10101000000001 5
b0 4
b100 3
b10000000000000000000000000000011 2
01
b10 0
bx /
bx .
bx -
b0 ,
bx +
0*
0)
0(
b0 '
bx &
bz0000000000000000 %
0$
b10101000000001 #
b0 "
1!
$end
#500
xk
b1xxxxx H
1)
1`
#800
xK
x>
xA
xz
x~
x$"
x("
x,"
x0"
x4"
x8"
x<"
x@"
xD"
xH"
xL"
xP"
xT"
xX"
xB
xZ
xV
x@
x?
xW
xP
xN
bx '
bx U
1J
1O
1G
0I
b10101000000001 +
b10101000000001 D
b1 ,
1$
#1000
0)
0`
#1085
1*
1l"
#1500
b1 L
b1 y
b1 }
b1 #"
b1 '"
b1 +"
b1 /"
b1 3"
b1 7"
b1 ;"
b1 ?"
b1 C"
b1 G"
b1 K"
b1 O"
b1 S"
b1 W"
0K
0>
xO
xG
0A
0z
0~
0$"
0("
0,"
00"
04"
08"
0<"
0@"
xD"
0H"
0L"
0P"
0T"
0X"
0B
0Z
0V
0@
0?
0W
0N
b0x0000000000 '
b0x0000000000 U
b1 Y
0P
bx #
bx 5
xJ
xI
b1010 M
b1000000001 Q
b1 _
b0x "
b0x 4
b0x C
xp
xs
xl
xm
b10101000000001 n
b1 o
b10 R
1)
1`
#1800
0D"
b0 '
b0 U
0J
0O
0G
1I
b1111111111111111 +
b1111111111111111 D
b0 ,
0$
#2000
0)
0`
#2170
0*
0l"
#2500
xt
0p
1)
1`
#2800
xD"
b0x0000000000 '
b0x0000000000 U
xJ
xO
xG
xI
bx +
bx D
b1 ,
1$
#3000
1>
1z
0D"
1O
1G
b1 '
b1 U
b0 Y
b0 L
b0 y
b0 }
b0 #"
b0 '"
b0 +"
b0 /"
b0 3"
b0 7"
b0 ;"
b0 ?"
b0 C"
b0 G"
b0 K"
b0 O"
b0 S"
b0 W"
b10101000000001 #
b10101000000001 5
0j"
b0 k"
06
18
1J
0I
b0 M
b0 Q
b0 _
b0 "
b0 4
b0 C
b0 ~"
b0 }"
b0 |"
b0 {"
b0 z"
b0 y"
b0 x"
b0 w"
b0 v"
b0 u"
b0 t"
b0 s"
b0 r"
b0 q"
b0 p"
b0 ^
b0 \
b0 ]
b0 [
b0 o"
b0 b
b0 S
b0 =
b0 w
b0 q
0k
b0 j
0i
b0 h
0g
0X
b0 f
0d
b0 7
0e
b100000 H
b0 c
0t
0s
0l
0m
b0 n
b0 o
b1 R
b0 Y"
b0 V"
b0 U"
b0 R"
b0 Q"
b0 N"
b0 M"
b0 J"
b0 I"
b0 F"
b0 E"
b0 B"
b0 A"
b0 >"
b0 ="
b0 :"
b0 9"
b0 6"
b0 5"
b0 2"
b0 1"
b0 ."
1<
b0 ;
b0 -"
b0 *"
b0 )"
b0 &"
1:
b0 9
b0 %"
b0 ""
b0 !"
b0 |
b0 {
b0 x
b0 &
b0 T
0)
0`
11
1a
#3255
1*
1l"
#3500
1)
1`
#3800
0>
0z
b0 '
b0 U
0J
0O
0G
1I
b1111111111111111 +
b1111111111111111 D
b0 ,
0$
#4000
0)
0`
#4340
0*
0l"
#4500
1)
1`
#4800
1>
1z
b1 '
b1 U
1J
1O
1G
0I
b10101000000001 +
b10101000000001 D
b1 ,
1$
#5000
0)
0`
01
0a
#5425
1*
1l"
#5500
0>
0z
1D"
b10000000000 '
b10000000000 U
b1 Y
b1 L
b1 y
b1 }
b1 #"
b1 '"
b1 +"
b1 /"
b1 3"
b1 7"
b1 ;"
b1 ?"
b1 C"
b1 G"
b1 K"
b1 O"
b1 S"
b1 W"
b10011000000000 #
b10011000000000 5
b1010 M
b1000000001 Q
b1 _
b1 "
b1 4
b1 C
b10101000000001 n
b1 o
b10 R
1p
1g
1i
1X
1k
b100111 H
1)
1`
#5800
0D"
b0 '
b0 U
0J
0O
0G
1I
b1111111111111111 +
b1111111111111111 D
b0 ,
0$
#6000
0)
0`
#6500
0p
1e
b110111 H
1)
1`
#6510
0*
0l"
#6800
1D"
b10000000000 '
b10000000000 U
1J
1O
1G
0I
b10011000000000 +
b10011000000000 D
b1 ,
1$
#7000
0)
0`
#7500
b0 L
b0 y
b0 }
b0 #"
b0 '"
b0 +"
b0 /"
b0 3"
b0 7"
b0 ;"
b0 ?"
b0 C"
b0 G"
b0 K"
b0 O"
b0 S"
b0 W"
1@"
0D"
b1001110100000 #
b1001110100000 5
b1000000000 '
b1000000000 U
b0 Y
b1 y"
b1001 M
b1000000000 Q
b0 _
b10 "
b10 4
b10 C
b1 E"
b1 B"
b10000000000000000000000000000000000000000000000000000000000000000000000000000000000000000000000000000000000000000000000000000000000000000000000000000000000000000 &
b10000000000000000000000000000000000000000000000000000000000000000000000000000000000000000000000000000000000000000000000000000000000000000000000000000000000000000 T
b10011000000000 n
b10 o
b11 R
b10 /
b10101000000001 .
b1 -
1)
1`
#7595
1*
1l"
#7800
0@"
b0 '
b0 U
0J
0O
0G
1I
b1111111111111111 +
b1111111111111111 D
b0 ,
0$
#8000
0)
0`
#8500
1)
1`
#8680
0*
0l"
#8800
1@"
b1000000000 '
b1000000000 U
1J
1O
1G
0I
b1001110100000 +
b1001110100000 D
b1 ,
1$
#9000
0)
0`
#9500
b1001110100000 L
b1001110100000 y
b1001110100000 }
b1001110100000 #"
b1001110100000 '"
b1001110100000 +"
b1001110100000 /"
b1001110100000 3"
b1001110100000 7"
b1001110100000 ;"
b1001110100000 ?"
b1001110100000 C"
b1001110100000 G"
b1001110100000 K"
b1001110100000 O"
b1001110100000 S"
b1001110100000 W"
b1111111100000000 #
b1111111100000000 5
1,"
0@"
b10000 '
b10000 U
1P
b100 M
b1110100000 Q
b10100000 _
b11 "
b11 4
b11 C
b1001110100000 n
b11 o
b100 R
b10011000000000 .
b10 -
1)
1`
#9765
1*
1l"
#9800
b1111111111111111 L
b1111111111111111 y
b1111111111111111 }
b1111111111111111 #"
b1111111111111111 '"
b1111111111111111 +"
b1111111111111111 /"
b1111111111111111 3"
b1111111111111111 7"
b1111111111111111 ;"
b1111111111111111 ?"
b1111111111111111 C"
b1111111111111111 G"
b1111111111111111 K"
b1111111111111111 O"
b1111111111111111 S"
b1111111111111111 W"
0,"
0P
b0 '
b0 U
0J
0O
0G
1I
b1111111111111111 +
b1111111111111111 D
b0 ,
0$
#10000
0)
0`
#10500
1)
1`
#10800
b1111111100000000 L
b1111111100000000 y
b1111111100000000 }
b1111111100000000 #"
b1111111100000000 '"
b1111111100000000 +"
b1111111100000000 /"
b1111111100000000 3"
b1111111100000000 7"
b1111111100000000 ;"
b1111111100000000 ?"
b1111111100000000 C"
b1111111100000000 G"
b1111111100000000 K"
b1111111100000000 O"
b1111111100000000 S"
b1111111100000000 W"
1,"
1P
b10000 '
b10000 U
1J
1O
1G
0I
b1111111100000000 +
b1111111100000000 D
b1 ,
1$
#10850
0*
0l"
#11000
0)
0`
#11500
b0 L
b0 y
b0 }
b0 #"
b0 '"
b0 +"
b0 /"
b0 3"
b0 7"
b0 ;"
b0 ?"
b0 C"
b0 G"
b0 K"
b0 O"
b0 S"
b0 W"
b1011101100000 #
b1011101100000 5
0O
0G
0,"
0W
b0 '
b0 U
0P
b1111111100000000 s"
b111111 M
b1100000000 Q
b0 _
b100 "
b100 4
b100 C
b1111111100000000 -"
0<
b1111111100000000 ;
b1111111100000000 *"
b10000000000000000000000000000000000000000000000000000000000000000000000000000000011111111000000000000000000000000000000000000000000000000000000000000000000000000 &
b10000000000000000000000000000000000000000000000000000000000000000000000000000000011111111000000000000000000000000000000000000000000000000000000000000000000000000 T
1m
b1111111100000000 n
b100 o
b101 R
b1001110100000 .
b11 -
1)
1`
#11800
0J
1I
b1111111111111111 +
b1111111111111111 D
b0 ,
0$
#11935
1*
1l"
#12000
0)
0`
#12500
0i
0X
b110110 H
b1111111100000000 h
1)
1`
#12800
1J
0I
b1011101100000 +
b1011101100000 D
b1 ,
1$
#13000
0)
0`
#13020
0*
0l"
#13500
b1111111111111111 L
b1111111111111111 y
b1111111111111111 }
b1111111111111111 #"
b1111111111111111 '"
b1111111111111111 +"
b1111111111111111 /"
b1111111111111111 3"
b1111111111111111 7"
b1111111111111111 ;"
b1111111111111111 ?"
b1111111111111111 C"
b1111111111111111 G"
b1111111111111111 K"
b1111111111111111 O"
b1111111111111111 S"
b1111111111111111 W"
10"
b101000000000 #
b101000000000 5
b100000 '
b100000 U
1O
1G
b101 M
b1101100000 Q
b1100000 _
b101 "
b101 4
b101 C
0m
b1011101100000 n
b101 o
b110 R
1)
1`
#13800
00"
b0 '
b0 U
0J
0O
0G
1I
b1111111111111111 +
b1111111111111111 D
b0 ,
0$
#14000
0)
0`
#14105
1*
1l"
#14500
1)
1`
#14800
10"
b100000 '
b100000 U
1J
1O
1G
0I
b101000000000 +
b101000000000 D
b1 ,
1$
#15000
0)
0`
#15190
0*
0l"
#15500
b0 L
b0 y
b0 }
b0 #"
b0 '"
b0 +"
b0 /"
b0 3"
b0 7"
b0 ;"
b0 ?"
b0 C"
b0 G"
b0 K"
b0 O"
b0 S"
b0 W"
b1000000101 #
b1000000101 5
1$"
00"
b100 '
b100 U
b1111111111111111 t"
b10 M
b1000000000 Q
b0 _
b110 "
b110 4
b110 C
b1111111111111111 1"
b1111111111111111 ."
b10000000000000000000000000000000000000000000000000000000000000000111111111111111111111111000000000000000000000000000000000000000000000000000000000000000000000000 &
b10000000000000000000000000000000000000000000000000000000000000000111111111111111111111111000000000000000000000000000000000000000000000000000000000000000000000000 T
b1111111011111111 ;
b101000000000 n
b110 o
b111 R
b1011101100000 .
b101 -
1)
1`
#15800
0$"
b0 '
b0 U
0J
0O
0G
1I
b1111111111111111 +
b1111111111111111 D
b0 ,
0$
#16000
0)
0`
#16275
1*
1l"
#16500
b1111111011111111 h
1)
1`
#16800
1$"
b100 '
b100 U
1J
1O
1G
0I
b1000000101 +
b1000000101 D
b1 ,
1$
#17000
0)
0`
#17360
0*
0l"
#17500
b101 L
b101 y
b101 }
b101 #"
b101 '"
b101 +"
b101 /"
b101 3"
b101 7"
b101 ;"
b101 ?"
b101 C"
b101 G"
b101 K"
b101 O"
b101 S"
b101 W"
b11110100000 #
b11110100000 5
1>
1z
0$"
b1 '
b1 U
1X
b101 Y
b0 M
b1000000101 Q
b101 _
b111 "
b111 4
b111 C
b1000000101 n
b111 o
b1000 R
b101000000000 .
b110 -
1)
1`
#17800
0>
0z
b0 '
b0 U
0J
0O
0G
1I
b1111111111111111 +
b1111111111111111 D
b0 ,
0$
#18000
0)
0`
#18445
1*
1l"
#18500
1)
1`
#18800
1>
1z
b1 '
b1 U
1J
1O
1G
0I
b11110100000 +
b11110100000 D
b1 ,
1$
#19000
0)
0`
#19500
b11110100000 L
b11110100000 y
b11110100000 }
b11110100000 #"
b11110100000 '"
b11110100000 +"
b11110100000 /"
b11110100000 3"
b11110100000 7"
b11110100000 ;"
b11110100000 ?"
b11110100000 C"
b11110100000 G"
b11110100000 K"
b11110100000 O"
b11110100000 S"
b11110100000 W"
b1111111111111111 #
b1111111111111111 5
0z
1~
b10 '
b10 U
0X
b0 Y
1P
b10 \
b1010000 ]
b1010 [
b101 o"
08
b101 b
b101 S
b1 M
b1110100000 Q
b10100000 _
b1000 "
b1000 4
b1000 C
b101 {
b101 x
b10000000000000000000000000000000000000000000000000000000000000000111111111111111111111111000000000000000000000000000000000000000000000000000000000000000000000101 &
b10000000000000000000000000000000000000000000000000000000000000000111111111111111111111111000000000000000000000000000000000000000000000000000000000000000000000101 T
b101 7
b11110100000 n
b1000 o
b1001 R
1p
b1000000101 .
b111 -
1)
1`
#19530
0*
0l"
#19800
b1111111111111111 L
b1111111111111111 y
b1111111111111111 }
b1111111111111111 #"
b1111111111111111 '"
b1111111111111111 +"
b1111111111111111 /"
b1111111111111111 3"
b1111111111111111 7"
b1111111111111111 ;"
b1111111111111111 ?"
b1111111111111111 C"
b1111111111111111 G"
b1111111111111111 K"
b1111111111111111 O"
b1111111111111111 S"
b1111111111111111 W"
0>
0~
0P
b0 '
b0 U
0J
0O
0G
1I
b1111111111111111 +
b1111111111111111 D
b0 ,
0$
#20000
0)
0`
#20500
b101 w
b101 q
0p
0e
b100110 H
b101 c
1)
1`
#20615
1*
1l"
#20800
1>
1~
1P
b10 '
b10 U
1J
1O
1G
0I
b1 ,
1$
#21000
0)
0`
#21500
bx L
bx y
bx }
bx #"
bx '"
bx +"
bx /"
bx 3"
bx 7"
bx ;"
bx ?"
bx C"
bx G"
bx K"
bx O"
bx S"
bx W"
b1100100000000000 #
b1100100000000000 5
0O
0G
0>
0~
0W
b0 '
b0 U
b1111 Y
0P
b1111111111111111 p"
16
b1111111111111010 b
b1111111111111111 S
b101 =
b111111 M
b1111111111 Q
b11111111 _
b1001 "
b1001 4
b1001 C
b1111111111111111 !"
b1111111111111111 |
b10000000000000000000000000000000000000000000000000000000000000000111111111111111111111111000000000000000000000000000000000000000011111111111111110000000000000101 &
b10000000000000000000000000000000000000000000000000000000000000000111111111111111111111111000000000000000000000000000000000000000011111111111111110000000000000101 T
b10000000000000100 7
1m
b1111111111111111 n
b1001 o
b1010 R
1p
b11110100000 .
b1000 -
1)
1`
#21700
0*
0l"
#21800
0J
1I
b0 ,
0$
#22000
0)
0`
#22500
b1111111111111010 w
b1111111111111111 q
0k
b101 j
0p
1d
b10000000000000101 7
b101010 H
b100 c
1)
1`
#22785
1*
1l"
#22800
1J
0I
b1100100000000000 +
b1100100000000000 D
b1 ,
1$
#23000
0)
0`
#23500
b1101100111000 #
b1101100111000 5
1O
1G
b0 Y
b101 L
b101 y
b101 }
b101 #"
b101 '"
b101 +"
b101 /"
b101 3"
b101 7"
b101 ;"
b101 ?"
b101 C"
b101 G"
b101 K"
b101 O"
b101 S"
b101 W"
b110010 M
b0 Q
b0 _
b1010 "
b1010 4
b1010 C
0m
b1100100000000000 n
b1010 o
b1011 R
1)
1`
#23800
0J
0O
0G
1I
b1111111111111111 +
b1111111111111111 D
b0 ,
0$
#23870
0*
0l"
#24000
0)
0`
#24500
1)
1`
#24800
1J
1O
1G
0I
b1101100111000 +
b1101100111000 D
b1 ,
1$
#24955
1*
1l"
#25000
0)
0`
#25500
b1001100100000 #
b1001100100000 5
14"
b1000000 '
b1000000 U
b1000 Y
b1111111111111010 L
b1111111111111010 y
b1111111111111010 }
b1111111111111010 #"
b1111111111111010 '"
b1111111111111010 +"
b1111111111111010 /"
b1111111111111010 3"
b1111111111111010 7"
b1111111111111010 ;"
b1111111111111010 ?"
b1111111111111010 C"
b1111111111111010 G"
b1111111111111010 K"
b1111111111111010 O"
b1111111111111010 S"
b1111111111111010 W"
b110 M
b1100111000 Q
b111000 _
b1011 "
b1011 4
b1011 C
b1101100111000 n
b1011 o
b1100 R
b1100100000000000 .
b1010 -
1)
1`
#25800
04"
b0 '
b0 U
0J
0O
0G
1I
b1111111111111111 +
b1111111111111111 D
b0 ,
0$
#26000
0)
0`
#26040
0*
0l"
#26500
1)
1`
#26800
14"
b1000000 '
b1000000 U
1J
1O
1G
0I
b1001100100000 +
b1001100100000 D
b1 ,
1$
#27000
0)
0`
#27125
1*
1l"
