trunk/DE0_nano/icarus/testbench.vcd
$date
	Thu Dec 04 21:29:28 2014
$end
$version
	Icarus Verilog
$end
$timescale
	1ns
$end
$scope module testbench $end
$var wire 1 ! async_out $end
$var wire 16 " code_addr [15:0] $end
$var wire 16 # code_fetched [15:0] $end
$var wire 16 $ code_in [15:0] $end
$var wire 256 % data_in_flat [255:0] $end
$var wire 256 & r_flat [255:0] $end
$var wire 16 ' r_load [15:0] $end
$var wire 1 ( txbsy $end
$var reg 1 ) clk50m $end
$var reg 1 * clk_async $end
$var reg 1 + code_ready $end
$var reg 1 , sysreset $end
$scope module rom $end
$var wire 16 - addr [15:0] $end
$var wire 16 . data [15:0] $end
$upscope $end
$scope module chip $end
$var wire 1 / ad0_carry_out_comb $end
$var wire 17 0 ad0_comb [16:0] $end
$var wire 1 1 ad0_zero_comb $end
$var wire 16 2 ad1_comb [15:0] $end
$var wire 1 3 ad1_zero_comb $end
$var wire 16 4 ad2_comb [15:0] $end
$var wire 1 5 ad2_zero_comb $end
$var wire 16 6 and0_comb [15:0] $end
$var wire 1 7 binary_operator0 $end
$var wire 1 8 bn_operator $end
$var wire 1 9 br_operator $end
$var wire 1 : branch_accept $end
$var wire 1 ; clrf_operator $end
$var wire 16 < code_addr [15:0] $end
$var wire 16 = code_in [15:0] $end
$var wire 1 > code_ready $end
$var wire 16 ? const_neg1 [15:0] $end
$var wire 256 @ data_in_flat [255:0] $end
$var wire 1 A enable_exec $end
$var wire 16 B flags [15:0] $end
$var wire 1 C hold_ipr $end
$var wire 1 D load_exr $end
$var wire 1 E load_ipr $end
$var wire 16 F muxa_comb [15:0] $end
$var wire 6 G muxa_dest_addr [5:0] $end
$var wire 1 H muxa_dest_return_addr $end
$var wire 1 I muxa_do_copy $end
$var wire 1 J muxa_source_imm16 $end
$var wire 10 K muxa_src_addr [9:0] $end
$var wire 16 L next_code_addr [15:0] $end
$var wire 16 M or0_comb [15:0] $end
$var wire 256 N r_flat [255:0] $end
$var wire 16 O r_load [15:0] $end
$var wire 1 P random_fetch_operator $end
$var wire 1 Q return_operator $end
$var wire 1 R selected_flag $end
$var wire 4 S selected_flag_addr [3:0] $end
$var wire 1 T setf_operator $end
$var wire 16 U sh1l0 [15:0] $end
$var wire 16 V sh1r0 [15:0] $end
$var wire 16 W sh4l0 [15:0] $end
$var wire 16 X sh4r0 [15:0] $end
$var wire 16 Y small_constant [15:0] $end
$var wire 1 Z sysclk $end
$var wire 1 [ sysreset $end
$var wire 16 \ xor0_comb [15:0] $end
$var reg 16 ] ad0 [15:0] $end
$var reg 1 ^ ad0_carry_flag $end
$var reg 1 _ ad0_zero_flag $end
$var reg 16 ` ad1 [15:0] $end
$var reg 1 a ad1_zero_flag $end
$var reg 16 b ad2 [15:0] $end
$var reg 1 c ad2_zero_flag $end
$var reg 16 d and0 [15:0] $end
$var reg 1 e and0_zero_flag $end
$var reg 1 f branching_cycle $end
$var reg 1 g const16cycle1 $end
$var reg 16 h exr [15:0] $end
$var reg 16 i ipr [15:0] $end
$var reg 1 j load_carry $end
$var reg 16 k or0 [15:0] $end
$var reg 16 l random_fetch_addr [15:0] $end
$var reg 1 m random_fetch_cycle1 $end
$var reg 1 n random_fetch_cycle2 $end
$var reg 16 o random_fetch_result [15:0] $end
$var reg 16 p return_addr [15:0] $end
$var reg 16 q xor0 [15:0] $end
$scope begin regs[0] $end
$var wire 16 r r [15:0] $end
$scope module r_reg $end
$var wire 16 s data_in [15:0] $end
$var wire 1 t load $end
$var wire 1 Z sysclk $end
$var wire 1 [ sysreset $end
$var reg 16 u data_out [15:0] $end
$upscope $end
$upscope $end
$scope begin regs[1] $end
$var wire 16 v r [15:0] $end
$scope module r_reg $end
$var wire 16 w data_in [15:0] $end
$var wire 1 x load $end
$var wire 1 Z sysclk $end
$var wire 1 [ sysreset $end
$var reg 16 y data_out [15:0] $end
$upscope $end
$upscope $end
$scope begin regs[2] $end
$var wire 16 z r [15:0] $end
$scope module r_reg $end
$var wire 16 { data_in [15:0] $end
$var wire 1 | load $end
$var wire 1 Z sysclk $end
$var wire 1 [ sysreset $end
$var reg 16 } data_out [15:0] $end
$upscope $end
$upscope $end
$scope begin regs[3] $end
$var wire 16 ~ r [15:0] $end
$scope module r_reg $end
$var wire 16 !" data_in [15:0] $end
$var wire 1 "" load $end
$var wire 1 Z sysclk $end
$var wire 1 [ sysreset $end
$var reg 16 #" data_out [15:0] $end
$upscope $end
$upscope $end
$scope begin regs[4] $end
$var wire 16 $" r [15:0] $end
$scope module r_reg $end
$var wire 16 %" data_in [15:0] $end
$var wire 1 &" load $end
$var wire 1 Z sysclk $end
$var wire 1 [ sysreset $end
$var reg 16 '" data_out [15:0] $end
$upscope $end
$upscope $end
$scope begin regs[5] $end
$var wire 16 (" r [15:0] $end
$scope module r_reg $end
$var wire 16 )" data_in [15:0] $end
$var wire 1 *" load $end
$var wire 1 Z sysclk $end
$var wire 1 [ sysreset $end
$var reg 16 +" data_out [15:0] $end
$upscope $end
$upscope $end
$scope begin regs[6] $end
$var wire 16 ," r [15:0] $end
$scope module r_reg $end
$var wire 16 -" data_in [15:0] $end
$var wire 1 ." load $end
$var wire 1 Z sysclk $end
$var wire 1 [ sysreset $end
$var reg 16 /" data_out [15:0] $end
$upscope $end
$upscope $end
$scope begin regs[7] $end
$var wire 16 0" r [15:0] $end
$scope module r_reg $end
$var wire 16 1" data_in [15:0] $end
$var wire 1 2" load $end
$var wire 1 Z sysclk $end
$var wire 1 [ sysreset $end
$var reg 16 3" data_out [15:0] $end
$upscope $end
$upscope $end
$scope begin regs[8] $end
$var wire 16 4" r [15:0] $end
$scope module r_reg $end
$var wire 16 5" data_in [15:0] $end
$var wire 1 6" load $end
$var wire 1 Z sysclk $end
$var wire 1 [ sysreset $end
$var reg 16 7" data_out [15:0] $end
$upscope $end
$upscope $end
$scope begin regs[9] $end
$var wire 16 8" r [15:0] $end
$scope module r_reg $end
$var wire 16 9" data_in [15:0] $end
$var wire 1 :" load $end
$var wire 1 Z sysclk $end
$var wire 1 [ sysreset $end
$var reg 16 ;" data_out [15:0] $end
$upscope $end
$upscope $end
$scope begin regs[10] $end
$var wire 16 <" r [15:0] $end
$scope module r_reg $end
$var wire 16 =" data_in [15:0] $end
$var wire 1 >" load $end
$var wire 1 Z sysclk $end
$var wire 1 [ sysreset $end
$var reg 16 ?" data_out [15:0] $end
$upscope $end
$upscope $end
$scope begin regs[11] $end
$var wire 16 @" r [15:0] $end
$scope module r_reg $end
$var wire 16 A" data_in [15:0] $end
$var wire 1 B" load $end
$var wire 1 Z sysclk $end
$var wire 1 [ sysreset $end
$var reg 16 C" data_out [15:0] $end
$upscope $end
$upscope $end
$scope begin regs[12] $end
$var wire 16 D" r [15:0] $end
$scope module r_reg $end
$var wire 16 E" data_in [15:0] $end
$var wire 1 F" load $end
$var wire 1 Z sysclk $end
$var wire 1 [ sysreset $end
$var reg 16 G" data_out [15:0] $end
$upscope $end
$upscope $end
$scope begin regs[13] $end
$var wire 16 H" r [15:0] $end
$scope module r_reg $end
$var wire 16 I" data_in [15:0] $end
$var wire 1 J" load $end
$var wire 1 Z sysclk $end
$var wire 1 [ sysreset $end
$var reg 16 K" data_out [15:0] $end
$upscope $end
$upscope $end
$scope begin regs[14] $end
$var wire 16 L" r [15:0] $end
$scope module r_reg $end
$var wire 16 M" data_in [15:0] $end
$var wire 1 N" load $end
$var wire 1 Z sysclk $end
$var wire 1 [ sysreset $end
$var reg 16 O" data_out [15:0] $end
$upscope $end
$upscope $end
$scope begin regs[15] $end
$var wire 16 P" r [15:0] $end
$scope module r_reg $end
$var wire 16 Q" data_in [15:0] $end
$var wire 1 R" load $end
$var wire 1 Z sysclk $end
$var wire 1 [ sysreset $end
$var reg 16 S" data_out [15:0] $end
$upscope $end
$upscope $end
$scope begin data_in[0] $end
$var wire 16 T" d [15:0] $end
$upscope $end
$scope begin data_in[1] $end
$var wire 16 U" d [15:0] $end
$upscope $end
$scope begin data_in[2] $end
$var wire 16 V" d [15:0] $end
$upscope $end
$scope begin data_in[3] $end
$var wire 16 W" d [15:0] $end
$upscope $end
$scope begin data_in[4] $end
$var wire 16 X" d [15:0] $end
$upscope $end
$scope begin data_in[5] $end
$var wire 16 Y" d [15:0] $end
$upscope $end
$scope begin data_in[6] $end
$var wire 16 Z" d [15:0] $end
$upscope $end
$scope begin data_in[7] $end
$var wire 16 [" d [15:0] $end
$upscope $end
$scope begin data_in[8] $end
$var wire 16 \" d [15:0] $end
$upscope $end
$scope begin data_in[9] $end
$var wire 16 ]" d [15:0] $end
$upscope $end
$scope begin data_in[10] $end
$var wire 16 ^" d [15:0] $end
$upscope $end
$scope begin data_in[11] $end
$var wire 16 _" d [15:0] $end
$upscope $end
$scope begin data_in[12] $end
$var wire 16 `" d [15:0] $end
$upscope $end
$scope begin data_in[13] $end
$var wire 16 a" d [15:0] $end
$upscope $end
$scope begin data_in[14] $end
$var wire 16 b" d [15:0] $end
$upscope $end
$scope begin data_in[15] $end
$var wire 16 c" d [15:0] $end
$upscope $end
$upscope $end
$scope module utx $end
$var wire 1 d" load_data $end
$var wire 8 e" parallel_in [7:0] $end
$var wire 1 ( tx_busy $end
$var wire 1 ! tx_line $end
$var wire 1 f" uart_sample_clk $end
$var reg 6 g" sample_cnt [5:0] $end
$var reg 9 h" tx_shifter [8:0] $end
$upscope $end
$scope begin regs[0] $end
$var wire 16 i" r [15:0] $end
$upscope $end
$scope begin regs[1] $end
$var wire 16 j" r [15:0] $end
$upscope $end
$scope begin regs[2] $end
$var wire 16 k" r [15:0] $end
$upscope $end
$scope begin regs[3] $end
$var wire 16 l" r [15:0] $end
$upscope $end
$scope begin regs[4] $end
$var wire 16 m" r [15:0] $end
$upscope $end
$scope begin regs[5] $end
$var wire 16 n" r [15:0] $end
$upscope $end
$scope begin regs[6] $end
$var wire 16 o" r [15:0] $end
$upscope $end
$scope begin regs[7] $end
$var wire 16 p" r [15:0] $end
$upscope $end
$scope begin regs[8] $end
$var wire 16 q" r [15:0] $end
$upscope $end
$scope begin regs[9] $end
$var wire 16 r" r [15:0] $end
$upscope $end
$scope begin regs[10] $end
$var wire 16 s" r [15:0] $end
$upscope $end
$scope begin regs[11] $end
$var wire 16 t" r [15:0] $end
$upscope $end
$scope begin regs[12] $end
$var wire 16 u" r [15:0] $end
$upscope $end
$scope begin regs[13] $end
$var wire 16 v" r [15:0] $end
$upscope $end
$scope begin regs[14] $end
$var wire 16 w" r [15:0] $end
$upscope $end
$scope begin regs[15] $end
$var wire 16 x" r [15:0] $end
$upscope $end
$scope begin data_in[0] $end
$var wire 16 y" d [15:0] $end
$upscope $end
$scope begin data_in[1] $end
$var wire 16 z" d [15:0] $end
$upscope $end
$scope begin data_in[2] $end
$var wire 16 {" d [15:0] $end
$upscope $end
$scope begin data_in[3] $end
$var wire 16 |" d [15:0] $end
$upscope $end
$scope begin data_in[4] $end
$var wire 16 }" d [15:0] $end
$upscope $end
$scope begin data_in[5] $end
$var wire 16 ~" d [15:0] $end
$upscope $end
$scope begin data_in[6] $end
$var wire 16 !# d [15:0] $end
$upscope $end
$scope begin data_in[7] $end
$var wire 16 "# d [15:0] $end
$upscope $end
$scope begin data_in[8] $end
$var wire 16 ## d [15:0] $end
$upscope $end
$scope begin data_in[9] $end
$var wire 16 $# d [15:0] $end
$upscope $end
$scope begin data_in[10] $end
$var wire 16 %# d [15:0] $end
$upscope $end
$scope begin data_in[11] $end
$var wire 16 &# d [15:0] $end
$upscope $end
$scope begin data_in[12] $end
$var wire 16 '# d [15:0] $end
$upscope $end
$scope begin data_in[13] $end
$var wire 16 (# d [15:0] $end
$upscope $end
$scope begin data_in[14] $end
$var wire 16 )# d [15:0] $end
$upscope $end
$scope begin data_in[15] $end
$var wire 16 *# d [15:0] $end
$upscope $end
$upscope $end
$scope module uart_v2_rx $end
$var wire 1 +# never $end
$var wire 8 ,# parallel_out [7:0] $end
$var wire 1 -# rx_busy $end
$var wire 1 .# rx_line $end
$var wire 1 /# uart_sample_clk $end
$var reg 8 0# rx_shifter [7:0] $end
$var reg 3 1# rx_state [2:0] $end
$var reg 5 2# sample_cnt [4:0] $end
$upscope $end
$enddefinitions $end
#0
$dumpvars
b0 2#
bx 1#
b0 0#
z/#
z.#
x-#
b0 ,#
0+#
bz *#
bz )#
bz (#
bz '#
bz &#
bz %#
bz $#
bz ##
bz "#
bz !#
bz ~"
bz }"
bz |"
bz {"
bz z"
b0 y"
bx x"
bx w"
bx v"
bx u"
bx t"
bx s"
bx r"
bx q"
bx p"
bx o"
bx n"
bx m"
bx l"
bx k"
bx j"
bx i"
b111111111 h"
b0 g"
0f"
bx e"
xd"
bz c"
bz b"
bz a"
bz `"
bz _"
bz ^"
bz ]"
bz \"
bz ["
bz Z"
bz Y"
bz X"
bz W"
bz V"
bz U"
b0 T"
bx S"
xR"
bx Q"
bx P"
bx O"
xN"
bx M"
bx L"
bx K"
xJ"
bx I"
bx H"
bx G"
xF"
bx E"
bx D"
bx C"
xB"
bx A"
bx @"
bx ?"
x>"
bx ="
bx <"
bx ;"
x:"
bx 9"
bx 8"
bx 7"
x6"
bx 5"
bx 4"
bx 3"
x2"
bx 1"
bx 0"
bx /"
x."
bx -"
bx ,"
bx +"
x*"
bx )"
bx ("
bx '"
x&"
bx %"
bx $"
bx #"
x""
bx !"
bx ~
bx }
x|
bx {
bx z
bx y
xx
bx w
bx v
bx u
xt
bx s
bx r
bx q
b0 p
b0 o
0n
0m
b0 l
bx k
0j
b0 i
bx h
0g
0f
0e
bx d
xc
bx b
xa
bx `
x_
x^
bx ]
bx \
0[
0Z
b0xxxxxxxx Y
b0xxxxxxxxxxxx X
bx0000 W
b0xxxxxxxxxxxxxxx V
bx0 U
xT
bx S
xR
xQ
xP
bx O
bx N
bx M
b1 L
bx K
xJ
1I
xH
bx G
bx F
xE
1D
0C
b1xx0xx B
1A
bz0000000000000000 @
b1111111111111111 ?
1>
bz =
b0 <
x;
x:
x9
x8
x7
bx 6
x5
bx 4
x3
bx 2
x1
bx 0
x/
b10101000000001 .
b0 -
0,
1+
0*
0)
0(
bx '
bx &
bz0000000000000000 %
bz $
b10101000000001 #
b0 "
1!
$end
#300
b10101000000001 $
b10101000000001 =
#500
b1 F
b1 s
b1 w
b1 {
b1 !"
b1 %"
b1 )"
b1 -"
b1 1"
b1 5"
b1 9"
b1 ="
b1 A"
b1 E"
b1 I"
b1 M"
b1 Q"
0E
07
xI
xA
0:
0t
0x
0|
0""
0&"
0*"
0."
02"
06"
0:"
x>"
0B"
0F"
0J"
0N"
0R"
0;
0T
0P
09
08
0Q
0H
b0x0000000000 '
b0x0000000000 O
b1 S
0J
bx #
bx .
xD
xC
b1010 G
b1000000001 K
b1 Y
b0x "
b0x -
b0x <
xm
xf
xg
b10101000000001 h
b1 i
b10 L
xj
xe
b1xxxxx B
1)
1Z
#800
bx $
bx =
#1000
0)
0Z
#1085
1*
1f"
#1500
b10011000000000 #
b10011000000000 .
1D
b1 "
b1 -
b1 <
0C
0j
xn
0m
0f
0g
1)
1Z
#1800
b10011000000000 $
b10011000000000 =
#2000
0)
0Z
#2170
0*
0f"
#2500
b0 F
b0 s
b0 w
b0 {
b0 !"
b0 %"
b0 )"
b0 -"
b0 1"
b0 5"
b0 9"
b0 ="
b0 A"
b0 E"
b0 I"
b0 M"
b0 Q"
1:"
0>"
b1001110100000 #
b1001110100000 .
1I
1A
b1000000000 '
b1000000000 O
b0 S
b1001 G
b1000000000 K
b0 Y
b10 "
b10 -
b10 <
0n
b10011000000000 h
b10 i
b11 L
1)
1Z
#2800
b1001110100000 $
b1001110100000 =
#3000
17
1t
0:"
b1 '
b1 O
b10101000000001 #
b10101000000001 .
0d"
b0 e"
0/
11
b0 G
b0 K
b0 "
b0 -
b0 <
b0 x"
b0 w"
b0 v"
b0 u"
b0 t"
b0 s"
b0 r"
b0 q"
b0 p"
b0 o"
b0 n"
b0 m"
b0 l"
b0 k"
b0 j"
b0 X
b0 V
b0 W
b0 U
b0 i"
b0 \
b0 M
b0 6
b0 q
b0 k
0e
b0 d
0c
0R
b0 b
0a
b0 `
0^
b0 0
0_
b100000 B
b0 ]
b0 h
b0 i
b1 L
b0 S"
b0 P"
b0 O"
b0 L"
b0 K"
b0 H"
b0 G"
b0 D"
b0 C"
b0 @"
b0 ?"
b0 <"
b0 ;"
b0 8"
b0 7"
b0 4"
b0 3"
b0 0"
b0 /"
b0 ,"
b0 +"
b0 ("
15
b0 4
b0 '"
b0 $"
b0 #"
b0 ~
13
b0 2
b0 }
b0 z
b0 y
b0 v
b0 u
b0 r
b0 &
b0 N
0)
0Z
1,
1[
#3255
1*
1f"
#3300
b10101000000001 $
b10101000000001 =
#3500
1)
1Z
#4000
0)
0Z
#4340
0*
0f"
#4500
1)
1Z
#5000
0)
0Z
0,
0[
#5425
1*
1f"
#5500
07
0t
1>"
b10000000000 '
b10000000000 O
b1 S
b1 F
b1 s
b1 w
b1 {
b1 !"
b1 %"
b1 )"
b1 -"
b1 1"
b1 5"
b1 9"
b1 ="
b1 A"
b1 E"
b1 I"
b1 M"
b1 Q"
b10011000000000 #
b10011000000000 .
b1010 G
b1000000001 K
b1 Y
b1 "
b1 -
b1 <
b10101000000001 h
b1 i
b10 L
1j
1a
1c
1R
1e
b100111 B
1)
1Z
#5800
b10011000000000 $
b10011000000000 =
#6000
0)
0Z
#6500
b0 F
b0 s
b0 w
b0 {
b0 !"
b0 %"
b0 )"
b0 -"
b0 1"
b0 5"
b0 9"
b0 ="
b0 A"
b0 E"
b0 I"
b0 M"
b0 Q"
1:"
0>"
b1001110100000 #
b1001110100000 .
b1000000000 '
b1000000000 O
b0 S
b1001 G
b1000000000 K
b0 Y
b10 "
b10 -
b10 <
b1 s"
0j
1_
b110111 B
b10011000000000 h
b10 i
b11 L
b1 ?"
b1 <"
b10000000000000000000000000000000000000000000000000000000000000000000000000000000000000000000000000000000000000000000000000000000000000000000000000000000000000000 &
b10000000000000000000000000000000000000000000000000000000000000000000000000000000000000000000000000000000000000000000000000000000000000000000000000000000000000000 N
1)
1Z
#6510
0*
0f"
#6800
b1001110100000 $
b1001110100000 =
#7000
0)
0Z
#7500
b1001110100000 F
b1001110100000 s
b1001110100000 w
b1001110100000 {
b1001110100000 !"
b1001110100000 %"
b1001110100000 )"
b1001110100000 -"
b1001110100000 1"
b1001110100000 5"
b1001110100000 9"
b1001110100000 ="
b1001110100000 A"
b1001110100000 E"
b1001110100000 I"
b1001110100000 M"
b1001110100000 Q"
b1111111100000000 #
b1111111100000000 .
1&"
0:"
b10000 '
b10000 O
1J
b100 G
b1110100000 K
b10100000 Y
b11 "
b11 -
b11 <
b1001110100000 h
b11 i
b100 L
1)
1Z
#7595
1*
1f"
#7800
b1111111100000000 F
b1111111100000000 s
b1111111100000000 w
b1111111100000000 {
b1111111100000000 !"
b1111111100000000 %"
b1111111100000000 )"
b1111111100000000 -"
b1111111100000000 1"
b1111111100000000 5"
b1111111100000000 9"
b1111111100000000 ="
b1111111100000000 A"
b1111111100000000 E"
b1111111100000000 I"
b1111111100000000 M"
b1111111100000000 Q"
b1111111100000000 $
b1111111100000000 =
#8000
0)
0Z
#8500
b0 F
b0 s
b0 w
b0 {
b0 !"
b0 %"
b0 )"
b0 -"
b0 1"
b0 5"
b0 9"
b0 ="
b0 A"
b0 E"
b0 I"
b0 M"
b0 Q"
b1011101100000 #
b1011101100000 .
0I
0A
0&"
0Q
b0 '
b0 O
0J
b111111 G
b1100000000 K
b0 Y
b100 "
b100 -
b100 <
b1111111100000000 m"
1g
b1111111100000000 h
b100 i
b101 L
b1111111100000000 '"
05
b1111111100000000 4
b1111111100000000 $"
b10000000000000000000000000000000000000000000000000000000000000000000000000000000011111111000000000000000000000000000000000000000000000000000000000000000000000000 &
b10000000000000000000000000000000000000000000000000000000000000000000000000000000011111111000000000000000000000000000000000000000000000000000000000000000000000000 N
1)
1Z
#8680
0*
0f"
#8800
b1011101100000 $
b1011101100000 =
#9000
0)
0Z
#9500
b1111111111111111 F
b1111111111111111 s
b1111111111111111 w
b1111111111111111 {
b1111111111111111 !"
b1111111111111111 %"
b1111111111111111 )"
b1111111111111111 -"
b1111111111111111 1"
b1111111111111111 5"
b1111111111111111 9"
b1111111111111111 ="
b1111111111111111 A"
b1111111111111111 E"
b1111111111111111 I"
b1111111111111111 M"
b1111111111111111 Q"
1*"
b101000000000 #
b101000000000 .
b100000 '
b100000 O
1I
1A
b101 G
b1101100000 K
b1100000 Y
b101 "
b101 -
b101 <
0g
b1011101100000 h
b101 i
b110 L
0c
0R
b110110 B
b1111111100000000 b
1)
1Z
#9765
1*
1f"
#9800
b101000000000 $
b101000000000 =
#10000
0)
0Z
#10500
b0 F
b0 s
b0 w
b0 {
b0 !"
b0 %"
b0 )"
b0 -"
b0 1"
b0 5"
b0 9"
b0 ="
b0 A"
b0 E"
b0 I"
b0 M"
b0 Q"
b1000000101 #
b1000000101 .
1|
0*"
b100 '
b100 O
b10 G
b1000000000 K
b0 Y
b110 "
b110 -
b110 <
b1111111111111111 n"
b101000000000 h
b110 i
b111 L
b1111111111111111 +"
b1111111111111111 ("
b10000000000000000000000000000000000000000000000000000000000000000111111111111111111111111000000000000000000000000000000000000000000000000000000000000000000000000 &
b10000000000000000000000000000000000000000000000000000000000000000111111111111111111111111000000000000000000000000000000000000000000000000000000000000000000000000 N
b1111111011111111 4
1)
1Z
#10800
b1000000101 $
b1000000101 =
#10850
0*
0f"
#11000
0)
0Z
#11500
b101 F
b101 s
b101 w
b101 {
b101 !"
b101 %"
b101 )"
b101 -"
b101 1"
b101 5"
b101 9"
b101 ="
b101 A"
b101 E"
b101 I"
b101 M"
b101 Q"
b11110100000 #
b11110100000 .
17
1t
0|
b1 '
b1 O
1R
b101 S
b0 G
b1000000101 K
b101 Y
b111 "
b111 -
b111 <
b1000000101 h
b111 i
b1000 L
b1111111011111111 b
1)
1Z
#11800
b11110100000 $
b11110100000 =
#11935
1*
1f"
#12000
0)
0Z
#12500
b11110100000 F
b11110100000 s
b11110100000 w
b11110100000 {
b11110100000 !"
b11110100000 %"
b11110100000 )"
b11110100000 -"
b11110100000 1"
b11110100000 5"
b11110100000 9"
b11110100000 ="
b11110100000 A"
b11110100000 E"
b11110100000 I"
b11110100000 M"
b11110100000 Q"
b1111111111111111 #
b1111111111111111 .
0t
1x
b10 '
b10 O
0R
b0 S
1J
b1 G
b1110100000 K
b10100000 Y
b1000 "
b1000 -
b1000 <
b10 V
b1010000 W
b1010 U
b101 i"
01
b101 \
b101 M
1j
b11110100000 h
b1000 i
b1001 L
b101 u
b101 r
b10000000000000000000000000000000000000000000000000000000000000000111111111111111111111111000000000000000000000000000000000000000000000000000000000000000000000101 &
b10000000000000000000000000000000000000000000000000000000000000000111111111111111111111111000000000000000000000000000000000000000000000000000000000000000000000101 N
b101 0
1)
1Z
#12800
b1111111111111111 F
b1111111111111111 s
b1111111111111111 w
b1111111111111111 {
b1111111111111111 !"
b1111111111111111 %"
b1111111111111111 )"
b1111111111111111 -"
b1111111111111111 1"
b1111111111111111 5"
b1111111111111111 9"
b1111111111111111 ="
b1111111111111111 A"
b1111111111111111 E"
b1111111111111111 I"
b1111111111111111 M"
b1111111111111111 Q"
b1111111111111111 $
b1111111111111111 =
#13000
0)
0Z
#13020
0*
0f"
#13500
bx F
bx s
bx w
bx {
bx !"
bx %"
bx )"
bx -"
bx 1"
bx 5"
bx 9"
bx ="
bx A"
bx E"
bx I"
bx M"
bx Q"
b1100100000000000 #
b1100100000000000 .
0I
0A
07
0x
0Q
b0 '
b0 O
b1111 S
0J
b1111111111111111 j"
1/
b1111111111111010 \
b1111111111111111 M
b101 6
b111111 G
b1111111111 K
b11111111 Y
b1001 "
b1001 -
b1001 <
b1111111111111111 y
b1111111111111111 v
b10000000000000000000000000000000000000000000000000000000000000000111111111111111111111111000000000000000000000000000000000000000011111111111111110000000000000101 &
b10000000000000000000000000000000000000000000000000000000000000000111111111111111111111111000000000000000000000000000000000000000011111111111111110000000000000101 N
b10000000000000100 0
1g
b1111111111111111 h
b1001 i
b1010 L
0_
b100110 B
b101 ]
b101 q
b101 k
1)
1Z
#13800
b1100100000000000 $
b1100100000000000 =
#14000
0)
0Z
#14105
1*
1f"
#14500
b1101100111000 #
b1101100111000 .
1I
1A
b0 S
b101 F
b101 s
b101 w
b101 {
b101 !"
b101 %"
b101 )"
b101 -"
b101 1"
b101 5"
b101 9"
b101 ="
b101 A"
b101 E"
b101 I"
b101 M"
b101 Q"
b110010 G
b0 K
b0 Y
b1010 "
b1010 -
b1010 <
b1111111111111010 q
b1111111111111111 k
0e
b101 d
0j
1^
b10000000000000101 0
b101010 B
b100 ]
0g
b1100100000000000 h
b1010 i
b1011 L
1)
1Z
#14800
b1101100111000 $
b1101100111000 =
#15000
0)
0Z
#15190
0*
0f"
#15500
b1001100100000 #
b1001100100000 .
1."
b1000000 '
b1000000 O
b1000 S
b1111111111111010 F
b1111111111111010 s
b1111111111111010 w
b1111111111111010 {
b1111111111111010 !"
b1111111111111010 %"
b1111111111111010 )"
b1111111111111010 -"
b1111111111111010 1"
b1111111111111010 5"
b1111111111111010 9"
b1111111111111010 ="
b1111111111111010 A"
b1111111111111010 E"
b1111111111111010 I"
b1111111111111010 M"
b1111111111111010 Q"
b110 G
b1100111000 K
b111000 Y
b1011 "
b1011 -
b1011 <
b1101100111000 h
b1011 i
b1100 L
1)
1Z
#15800
b1001100100000 $
b1001100100000 =
#16000
0)
0Z
#16275
1*
1f"
#16500
b1111111011111111 F
b1111111011111111 s
b1111111011111111 w
b1111111011111111 {
b1111111011111111 !"
b1111111011111111 %"
b1111111011111111 )"
b1111111011111111 -"
b1111111011111111 1"
b1111111011111111 5"
b1111111011111111 9"
b1111111011111111 ="
b1111111011111111 A"
b1111111011111111 E"
b1111111011111111 I"
b1111111011111111 M"
b1111111011111111 Q"
b1100100000000000 #
b1100100000000000 .
1&"
0."
b10000 '
b10000 O
b0 S
b100 G
b1100100000 K
b100000 Y
b1100 "
b1100 -
b1100 <
b1111111111111010 o"
b1001100100000 h
b1100 i
b1101 L
b1111111111111010 /"
b1111111111111010 ,"
b10000000000000000000000000000000000000000000000001111111111111010111111111111111111111111000000000000000000000000000000000000000011111111111111110000000000000101 &
b10000000000000000000000000000000000000000000000001111111111111010111111111111111111111111000000000000000000000000000000000000000011111111111111110000000000000101 N
1)
1Z
#16800
b1100100000000000 $
b1100100000000000 =
#17000
0)
0Z
#17360
0*
0f"
#17500
b100 #
b100 .
0&"
b0 '
b0 O
b101 F
b101 s
b101 w
b101 {
b101 !"
b101 %"
b101 )"
b101 -"
b101 1"
b101 5"
b101 9"
b101 ="
b101 A"
b101 E"
b101 I"
b101 M"
b101 Q"
b1111111011111111 m"
b110010 G
b0 K
b0 Y
b1101 "
b1101 -
b1101 <
b1111111011111111 '"
b1111111011111110 4
b1111111011111111 $"
b10000000000000000000000000000000000000000000000001111111111111010111111111111111111111110111111110000000000000000000000000000000011111111111111110000000000000101 &
b10000000000000000000000000000000000000000000000001111111111111010111111111111111111111110111111110000000000000000000000000000000011111111111111110000000000000101 N
b1100100000000000 h
b1101 i
b1110 L
1)
1Z
#17800
b100 $
b100 =
#18000
0)
0Z
#18445
1*
1f"
#18500
b1101010011 #
b1101010011 .
17
1t
b1 '
b1 O
b100 S
b1111111011111111 F
b1111111011111111 s
b1111111011111111 w
b1111111011111111 {
b1111111011111111 !"
b1111111011111111 %"
b1111111011111111 )"
b1111111011111111 -"
b1111111011111111 1"
b1111111011111111 5"
b1111111011111111 9"
b1111111011111111 ="
b1111111011111111 A"
b1111111011111111 E"
b1111111011111111 I"
b1111111011111111 M"
b1111111011111111 Q"
b0 G
b100 K
b100 Y
b1110 "
b1110 -
b1110 <
b1111111011111110 b
b100 h
b1110 i
b1111 L
1)
1Z
#18800
b1101010011 $
b1101010011 =
#19000
0)
0Z
#19500
b10101101010011 #
b10101101010011 .
b111111101111 F
b111111101111 s
b111111101111 w
b111111101111 {
b111111101111 !"
b111111101111 %"
b111111101111 )"
b111111101111 -"
b111111101111 1"
b111111101111 5"
b111111101111 9"
b111111101111 ="
b111111101111 A"
b111111101111 E"
b111111101111 I"
b111111101111 M"
b111111101111 Q"
1R
b11 S
b111111101111 X
b111111101111111 V
b1110111111110000 W
b1111110111111110 U
b1111111011111111 i"
b100000000 \
b1111111011111111 6
b1101010011 K
b1010011 Y
b1111 "
b1111 -
b1111 <
b1111111011111111 u
b1111111011111111 r
b10000000000000000000000000000000000000000000000001111111111111010111111111111111111111110111111110000000000000000000000000000000011111111111111111111111011111111 &
b10000000000000000000000000000000000000000000000001111111111111010111111111111111111111110111111110000000000000000000000000000000011111111111111111111111011111111 N
b11111111011111111 0
b1101010011 h
b1111 i
b10000 L
1j
1)
1Z
#19530
0*
0f"
#19800
b10101101010011 $
b10101101010011 =
#20000
0)
0Z
