trunk/DE0_nano/icarus/testbench.vcd
$date
	Sat Dec 06 01:22:57 2014
$end
$version
	Icarus Verilog
$end
$timescale
	1ns
$end
$scope module testbench $end
$var wire 1 ! async_out $end
$var wire 16 " code_addr [15:0] $end
$var wire 16 # code_fetched [15:0] $end
$var wire 1 $ code_ready $end
$var wire 256 % data_in_flat [255:0] $end
$var wire 256 & r_flat [255:0] $end
$var wire 16 ' r_load [15:0] $end
$var wire 1 ( txbsy $end
$var reg 1 ) clk50m $end
$var reg 1 * clk_async $end
$var reg 16 + code_in [15:0] $end
$var reg 8 , code_ready_cnt [7:0] $end
$var reg 16 - compare_addr [15:0] $end
$var reg 16 . compare_exr [15:0] $end
$var integer 32 / junk [31:0] $end
$var integer 32 0 serial_file [31:0] $end
$var reg 1 1 sysreset $end
$var integer 32 2 trace_compare_file [31:0] $end
$var integer 32 3 trace_file [31:0] $end
$scope module rom $end
$var wire 16 4 addr [15:0] $end
$var wire 16 5 data [15:0] $end
$upscope $end
$scope module mcu $end
$var wire 1 6 ad0_carry_out_comb $end
$var wire 17 7 ad0_comb [16:0] $end
$var wire 1 8 ad0_zero_comb $end
$var wire 16 9 ad1_comb [15:0] $end
$var wire 1 : ad1_zero_comb $end
$var wire 16 ; ad2_comb [15:0] $end
$var wire 1 < ad2_zero_comb $end
$var wire 16 = and0_comb [15:0] $end
$var wire 1 > binary_operator0 $end
$var wire 1 ? bn_operator $end
$var wire 1 @ br_operator $end
$var wire 1 A branch_accept $end
$var wire 1 B clrf_operator $end
$var wire 16 C code_addr [15:0] $end
$var wire 16 D code_in [15:0] $end
$var wire 1 $ code_ready $end
$var wire 16 E const_neg1 [15:0] $end
$var wire 256 F data_in_flat [255:0] $end
$var wire 1 G debug_hold $end
$var wire 1 H debug_in $end
$var wire 6 I debug_out [5:0] $end
$var wire 1 J enable_exec $end
$var wire 16 K flags [15:0] $end
$var wire 1 L hold_ipr $end
$var wire 1 M load_exr $end
$var wire 1 N load_ipr $end
$var wire 16 O muxa_comb [15:0] $end
$var wire 6 P muxa_dest_addr [5:0] $end
$var wire 1 Q muxa_dest_return_addr $end
$var wire 1 R muxa_do_copy $end
$var wire 1 S muxa_source_imm16 $end
$var wire 10 T muxa_src_addr [9:0] $end
$var wire 16 U next_code_addr [15:0] $end
$var wire 16 V or0_comb [15:0] $end
$var wire 256 W r_flat [255:0] $end
$var wire 16 X r_load [15:0] $end
$var wire 1 Y random_fetch_operator $end
$var wire 1 Z return_operator $end
$var wire 1 [ selected_flag $end
$var wire 4 \ selected_flag_addr [3:0] $end
$var wire 1 ] setf_operator $end
$var wire 16 ^ sh1l0 [15:0] $end
$var wire 16 _ sh1r0 [15:0] $end
$var wire 16 ` sh4l0 [15:0] $end
$var wire 16 a sh4r0 [15:0] $end
$var wire 16 b small_constant [15:0] $end
$var wire 1 c sysclk $end
$var wire 1 d sysreset $end
$var wire 16 e xor0_comb [15:0] $end
$var reg 16 f ad0 [15:0] $end
$var reg 1 g ad0_carry_flag $end
$var reg 1 h ad0_zero_flag $end
$var reg 16 i ad1 [15:0] $end
$var reg 1 j ad1_zero_flag $end
$var reg 16 k ad2 [15:0] $end
$var reg 1 l ad2_zero_flag $end
$var reg 16 m and0 [15:0] $end
$var reg 1 n and0_zero_flag $end
$var reg 1 o branching_cycle $end
$var reg 1 p const16cycle1 $end
$var reg 16 q exr [15:0] $end
$var reg 16 r ipr [15:0] $end
$var reg 1 s load_carry $end
$var reg 16 t or0 [15:0] $end
$var reg 16 u random_fetch_addr [15:0] $end
$var reg 1 v random_fetch_cycle1 $end
$var reg 1 w random_fetch_cycle2 $end
$var reg 16 x random_fetch_result [15:0] $end
$var reg 16 y return_addr [15:0] $end
$var reg 16 z xor0 [15:0] $end
$scope begin regs[0] $end
$var wire 16 { r [15:0] $end
$scope module r_reg $end
$var wire 16 | data_in [15:0] $end
$var wire 1 } load $end
$var wire 1 c sysclk $end
$var wire 1 d sysreset $end
$var reg 16 ~ data_out [15:0] $end
$upscope $end
$upscope $end
$scope begin regs[1] $end
$var wire 16 !" r [15:0] $end
$scope module r_reg $end
$var wire 16 "" data_in [15:0] $end
$var wire 1 #" load $end
$var wire 1 c sysclk $end
$var wire 1 d sysreset $end
$var reg 16 $" data_out [15:0] $end
$upscope $end
$upscope $end
$scope begin regs[2] $end
$var wire 16 %" r [15:0] $end
$scope module r_reg $end
$var wire 16 &" data_in [15:0] $end
$var wire 1 '" load $end
$var wire 1 c sysclk $end
$var wire 1 d sysreset $end
$var reg 16 (" data_out [15:0] $end
$upscope $end
$upscope $end
$scope begin regs[3] $end
$var wire 16 )" r [15:0] $end
$scope module r_reg $end
$var wire 16 *" data_in [15:0] $end
$var wire 1 +" load $end
$var wire 1 c sysclk $end
$var wire 1 d sysreset $end
$var reg 16 ," data_out [15:0] $end
$upscope $end
$upscope $end
$scope begin regs[4] $end
$var wire 16 -" r [15:0] $end
$scope module r_reg $end
$var wire 16 ." data_in [15:0] $end
$var wire 1 /" load $end
$var wire 1 c sysclk $end
$var wire 1 d sysreset $end
$var reg 16 0" data_out [15:0] $end
$upscope $end
$upscope $end
$scope begin regs[5] $end
$var wire 16 1" r [15:0] $end
$scope module r_reg $end
$var wire 16 2" data_in [15:0] $end
$var wire 1 3" load $end
$var wire 1 c sysclk $end
$var wire 1 d sysreset $end
$var reg 16 4" data_out [15:0] $end
$upscope $end
$upscope $end
$scope begin regs[6] $end
$var wire 16 5" r [15:0] $end
$scope module r_reg $end
$var wire 16 6" data_in [15:0] $end
$var wire 1 7" load $end
$var wire 1 c sysclk $end
$var wire 1 d sysreset $end
$var reg 16 8" data_out [15:0] $end
$upscope $end
$upscope $end
$scope begin regs[7] $end
$var wire 16 9" r [15:0] $end
$scope module r_reg $end
$var wire 16 :" data_in [15:0] $end
$var wire 1 ;" load $end
$var wire 1 c sysclk $end
$var wire 1 d sysreset $end
$var reg 16 <" data_out [15:0] $end
$upscope $end
$upscope $end
$scope begin regs[8] $end
$var wire 16 =" r [15:0] $end
$scope module r_reg $end
$var wire 16 >" data_in [15:0] $end
$var wire 1 ?" load $end
$var wire 1 c sysclk $end
$var wire 1 d sysreset $end
$var reg 16 @" data_out [15:0] $end
$upscope $end
$upscope $end
$scope begin regs[9] $end
$var wire 16 A" r [15:0] $end
$scope module r_reg $end
$var wire 16 B" data_in [15:0] $end
$var wire 1 C" load $end
$var wire 1 c sysclk $end
$var wire 1 d sysreset $end
$var reg 16 D" data_out [15:0] $end
$upscope $end
$upscope $end
$scope begin regs[10] $end
$var wire 16 E" r [15:0] $end
$scope module r_reg $end
$var wire 16 F" data_in [15:0] $end
$var wire 1 G" load $end
$var wire 1 c sysclk $end
$var wire 1 d sysreset $end
$var reg 16 H" data_out [15:0] $end
$upscope $end
$upscope $end
$scope begin regs[11] $end
$var wire 16 I" r [15:0] $end
$scope module r_reg $end
$var wire 16 J" data_in [15:0] $end
$var wire 1 K" load $end
$var wire 1 c sysclk $end
$var wire 1 d sysreset $end
$var reg 16 L" data_out [15:0] $end
$upscope $end
$upscope $end
$scope begin regs[12] $end
$var wire 16 M" r [15:0] $end
$scope module r_reg $end
$var wire 16 N" data_in [15:0] $end
$var wire 1 O" load $end
$var wire 1 c sysclk $end
$var wire 1 d sysreset $end
$var reg 16 P" data_out [15:0] $end
$upscope $end
$upscope $end
$scope begin regs[13] $end
$var wire 16 Q" r [15:0] $end
$scope module r_reg $end
$var wire 16 R" data_in [15:0] $end
$var wire 1 S" load $end
$var wire 1 c sysclk $end
$var wire 1 d sysreset $end
$var reg 16 T" data_out [15:0] $end
$upscope $end
$upscope $end
$scope begin regs[14] $end
$var wire 16 U" r [15:0] $end
$scope module r_reg $end
$var wire 16 V" data_in [15:0] $end
$var wire 1 W" load $end
$var wire 1 c sysclk $end
$var wire 1 d sysreset $end
$var reg 16 X" data_out [15:0] $end
$upscope $end
$upscope $end
$scope begin regs[15] $end
$var wire 16 Y" r [15:0] $end
$scope module r_reg $end
$var wire 16 Z" data_in [15:0] $end
$var wire 1 [" load $end
$var wire 1 c sysclk $end
$var wire 1 d sysreset $end
$var reg 16 \" data_out [15:0] $end
$upscope $end
$upscope $end
$scope begin data_in[0] $end
$var wire 16 ]" d [15:0] $end
$upscope $end
$scope begin data_in[1] $end
$var wire 16 ^" d [15:0] $end
$upscope $end
$scope begin data_in[2] $end
$var wire 16 _" d [15:0] $end
$upscope $end
$scope begin data_in[3] $end
$var wire 16 `" d [15:0] $end
$upscope $end
$scope begin data_in[4] $end
$var wire 16 a" d [15:0] $end
$upscope $end
$scope begin data_in[5] $end
$var wire 16 b" d [15:0] $end
$upscope $end
$scope begin data_in[6] $end
$var wire 16 c" d [15:0] $end
$upscope $end
$scope begin data_in[7] $end
$var wire 16 d" d [15:0] $end
$upscope $end
$scope begin data_in[8] $end
$var wire 16 e" d [15:0] $end
$upscope $end
$scope begin data_in[9] $end
$var wire 16 f" d [15:0] $end
$upscope $end
$scope begin data_in[10] $end
$var wire 16 g" d [15:0] $end
$upscope $end
$scope begin data_in[11] $end
$var wire 16 h" d [15:0] $end
$upscope $end
$scope begin data_in[12] $end
$var wire 16 i" d [15:0] $end
$upscope $end
$scope begin data_in[13] $end
$var wire 16 j" d [15:0] $end
$upscope $end
$scope begin data_in[14] $end
$var wire 16 k" d [15:0] $end
$upscope $end
$scope begin data_in[15] $end
$var wire 16 l" d [15:0] $end
$upscope $end
$upscope $end
$scope module utx $end
$var wire 1 m" load_data $end
$var wire 8 n" parallel_in [7:0] $end
$var wire 1 ( tx_busy $end
$var wire 1 ! tx_line $end
$var wire 1 o" uart_sample_clk $end
$var reg 6 p" sample_cnt [5:0] $end
$var reg 9 q" tx_shifter [8:0] $end
$upscope $end
$scope begin regs[0] $end
$var wire 16 r" r [15:0] $end
$upscope $end
$scope begin regs[1] $end
$var wire 16 s" r [15:0] $end
$upscope $end
$scope begin regs[2] $end
$var wire 16 t" r [15:0] $end
$upscope $end
$scope begin regs[3] $end
$var wire 16 u" r [15:0] $end
$upscope $end
$scope begin regs[4] $end
$var wire 16 v" r [15:0] $end
$upscope $end
$scope begin regs[5] $end
$var wire 16 w" r [15:0] $end
$upscope $end
$scope begin regs[6] $end
$var wire 16 x" r [15:0] $end
$upscope $end
$scope begin regs[7] $end
$var wire 16 y" r [15:0] $end
$upscope $end
$scope begin regs[8] $end
$var wire 16 z" r [15:0] $end
$upscope $end
$scope begin regs[9] $end
$var wire 16 {" r [15:0] $end
$upscope $end
$scope begin regs[10] $end
$var wire 16 |" r [15:0] $end
$upscope $end
$scope begin regs[11] $end
$var wire 16 }" r [15:0] $end
$upscope $end
$scope begin regs[12] $end
$var wire 16 ~" r [15:0] $end
$upscope $end
$scope begin regs[13] $end
$var wire 16 !# r [15:0] $end
$upscope $end
$scope begin regs[14] $end
$var wire 16 "# r [15:0] $end
$upscope $end
$scope begin regs[15] $end
$var wire 16 ## r [15:0] $end
$upscope $end
$scope begin data_in[0] $end
$var wire 16 $# d [15:0] $end
$upscope $end
$scope begin data_in[1] $end
$var wire 16 %# d [15:0] $end
$upscope $end
$scope begin data_in[2] $end
$var wire 16 &# d [15:0] $end
$upscope $end
$scope begin data_in[3] $end
$var wire 16 '# d [15:0] $end
$upscope $end
$scope begin data_in[4] $end
$var wire 16 (# d [15:0] $end
$upscope $end
$scope begin data_in[5] $end
$var wire 16 )# d [15:0] $end
$upscope $end
$scope begin data_in[6] $end
$var wire 16 *# d [15:0] $end
$upscope $end
$scope begin data_in[7] $end
$var wire 16 +# d [15:0] $end
$upscope $end
$scope begin data_in[8] $end
$var wire 16 ,# d [15:0] $end
$upscope $end
$scope begin data_in[9] $end
$var wire 16 -# d [15:0] $end
$upscope $end
$scope begin data_in[10] $end
$var wire 16 .# d [15:0] $end
$upscope $end
$scope begin data_in[11] $end
$var wire 16 /# d [15:0] $end
$upscope $end
$scope begin data_in[12] $end
$var wire 16 0# d [15:0] $end
$upscope $end
$scope begin data_in[13] $end
$var wire 16 1# d [15:0] $end
$upscope $end
$scope begin data_in[14] $end
$var wire 16 2# d [15:0] $end
$upscope $end
$scope begin data_in[15] $end
$var wire 16 3# d [15:0] $end
$upscope $end
$upscope $end
$scope module uart_v2_rx $end
$var wire 1 4# never $end
$var wire 8 5# parallel_out [7:0] $end
$var wire 1 6# rx_busy $end
$var wire 1 7# rx_line $end
$var wire 1 8# uart_sample_clk $end
$var reg 8 9# rx_shifter [7:0] $end
$var reg 3 :# rx_state [2:0] $end
$var reg 5 ;# sample_cnt [4:0] $end
$upscope $end
$enddefinitions $end
#0
$dumpvars
b0 ;#
bx :#
b0 9#
z8#
z7#
x6#
b0 5#
04#
bz 3#
bz 2#
bz 1#
bz 0#
bz /#
bz .#
bz -#
bz ,#
bz +#
bz *#
bz )#
bz (#
bz '#
bz &#
bz %#
b0 $#
bx ##
bx "#
bx !#
bx ~"
bx }"
bx |"
bx {"
bx z"
bx y"
bx x"
bx w"
bx v"
bx u"
bx t"
bx s"
bx r"
b111111111 q"
b0 p"
0o"
bx n"
xm"
bz l"
bz k"
bz j"
bz i"
bz h"
bz g"
bz f"
bz e"
bz d"
bz c"
bz b"
bz a"
bz `"
bz _"
bz ^"
b0 ]"
bx \"
0["
bx Z"
bx Y"
bx X"
0W"
bx V"
bx U"
bx T"
0S"
bx R"
bx Q"
bx P"
0O"
bx N"
bx M"
bx L"
0K"
bx J"
bx I"
bx H"
0G"
bx F"
bx E"
bx D"
0C"
bx B"
bx A"
bx @"
0?"
bx >"
bx ="
bx <"
0;"
bx :"
bx 9"
bx 8"
07"
bx 6"
bx 5"
bx 4"
03"
bx 2"
bx 1"
bx 0"
0/"
bx ."
bx -"
bx ,"
0+"
bx *"
bx )"
bx ("
0'"
bx &"
bx %"
bx $"
0#"
bx ""
bx !"
bx ~
0}
bx |
bx {
bx z
b0 y
b0 x
0w
0v
b0 u
bx t
0s
b0 r
bx q
0p
0o
0n
bx m
xl
bx k
xj
bx i
xh
xg
bx f
bx e
0d
0c
b0xxxxxxxx b
b0xxxxxxxxxxxx a
bx0000 `
b0xxxxxxxxxxxxxxx _
bx0 ^
0]
bx \
x[
0Z
0Y
b0 X
bx W
bx V
b1 U
bx T
0S
0R
0Q
bx P
bx O
0N
0M
1L
b1xx0xx K
0J
b0 I
zH
zG
bz0000000000000000 F
b1111111111111111 E
bx D
b0 C
0B
0A
0@
0?
0>
bx =
x<
bx ;
x:
bx 9
x8
bx 7
x6
b10101000000001 5
b0 4
b100 3
b10000000000000000000000000000011 2
01
b10 0
bx /
bx .
bx -
b0 ,
bx +
0*
0)
0(
b0 '
bx &
bz0000000000000000 %
0$
b10101000000001 #
b0 "
1!
$end
#500
xn
b1xxxxx K
1)
1c
#800
xN
x>
xA
x}
x#"
x'"
x+"
x/"
x3"
x7"
x;"
x?"
xC"
xG"
xK"
xO"
xS"
xW"
x["
xB
x]
xY
x@
x?
xZ
xS
xQ
bx '
bx X
1M
xR
xJ
b1x I
0L
b10101000000001 +
b10101000000001 D
b1 ,
1$
#1000
0)
0c
#1085
1*
1o"
#1500
b1 O
b1 |
b1 ""
b1 &"
b1 *"
b1 ."
b1 2"
b1 6"
b1 :"
b1 >"
b1 B"
b1 F"
b1 J"
b1 N"
b1 R"
b1 V"
b1 Z"
0N
0>
0A
0}
0#"
0'"
0+"
0/"
03"
07"
0;"
0?"
0C"
0K"
0O"
0S"
0W"
0["
0B
0]
0Y
0@
0?
0Z
0Q
b0x0000000000 '
b0x0000000000 X
b1 \
0S
bx #
bx 5
xM
xL
b1010 P
b1000000001 T
b1 b
b0x "
b0x 4
b0x C
xs
xv
xo
xp
bx0xx I
b10101000000001 q
b1 r
b10 U
1)
1c
#1800
0G"
b0 '
b0 X
0M
0R
0J
bx000 I
1L
b1111111111111111 +
b1111111111111111 D
b0 ,
0$
#2000
0)
0c
#2170
0*
0o"
#2500
xw
bx00 I
0s
1)
1c
#2800
xG"
b0x0000000000 '
b0x0000000000 X
xM
xR
xJ
bx I
xL
bx +
bx D
b1 ,
1$
#3000
x>
x}
0G"
b0x '
b0x X
b0 \
b0 O
b0 |
b0 ""
b0 &"
b0 *"
b0 ."
b0 2"
b0 6"
b0 :"
b0 >"
b0 B"
b0 F"
b0 J"
b0 N"
b0 R"
b0 V"
b0 Z"
b10101000000001 #
b10101000000001 5
0m"
b0 n"
06
18
1M
0L
b0 P
b0 T
b0 b
b0 "
b0 4
b0 C
b0 ##
b0 "#
b0 !#
b0 ~"
b0 }"
b0 |"
b0 {"
b0 z"
b0 y"
b0 x"
b0 w"
b0 v"
b0 u"
b0 t"
b0 s"
b0 a
b0 _
b0 `
b0 ^
b0 r"
b0 e
b0 V
b0 =
b0 z
b0 t
0n
b0 m
0l
b0 k
0j
0[
b0 i
0g
b0 7
0h
b100000 K
b0 f
0w
0v
0o
0p
b1x I
b0 q
b0 r
b1 U
b0 \"
b0 Y"
b0 X"
b0 U"
b0 T"
b0 Q"
b0 P"
b0 M"
b0 L"
b0 I"
b0 H"
b0 E"
b0 D"
b0 A"
b0 @"
b0 ="
b0 <"
b0 9"
b0 8"
b0 5"
b0 4"
b0 1"
1<
b0 ;
b0 0"
b0 -"
b0 ,"
b0 )"
1:
b0 9
b0 ("
b0 %"
b0 $"
b0 !"
b0 ~
b0 {
b0 &
b0 W
0)
0c
11
1d
#3255
1*
1o"
#3500
1)
1c
#3800
0>
0}
b0 '
b0 X
0M
0R
0J
b0 I
1L
b1111111111111111 +
b1111111111111111 D
b0 ,
0$
#4000
0)
0c
#4340
0*
0o"
#4500
1)
1c
#4800
x>
x}
b0x '
b0x X
1M
xR
xJ
b1x I
0L
b10101000000001 +
b10101000000001 D
b1 ,
1$
#5000
0)
0c
01
0d
#5425
1*
1o"
#5500
0>
0}
xG"
b0x0000000000 '
b0x0000000000 X
b1 \
b1 O
b1 |
b1 ""
b1 &"
b1 *"
b1 ."
b1 2"
b1 6"
b1 :"
b1 >"
b1 B"
b1 F"
b1 J"
b1 N"
b1 R"
b1 V"
b1 Z"
b10011000000000 #
b10011000000000 5
b1010 P
b1000000001 T
b1 b
b1 "
b1 4
b1 C
b10101000000001 q
b1 r
b10 U
xs
1j
1l
1[
1n
b100111 K
1)
1c
#5800
0G"
b0 '
b0 X
0M
0R
0J
b0 I
1L
b1111111111111111 +
b1111111111111111 D
b0 ,
0$
#6000
0)
0c
#6500
0s
1)
1c
#6510
0*
0o"
#6800
xG"
b0x0000000000 '
b0x0000000000 X
1M
xR
xJ
b1x I
0L
b10011000000000 +
b10011000000000 D
b1 ,
1$
#7000
0)
0c
#7500
b0 O
b0 |
b0 ""
b0 &"
b0 *"
b0 ."
b0 2"
b0 6"
b0 :"
b0 >"
b0 B"
b0 F"
b0 J"
b0 N"
b0 R"
b0 V"
b0 Z"
xC"
0G"
b1001110100000 #
b1001110100000 5
b0x000000000 '
b0x000000000 X
b0 \
b1001 P
b1000000000 T
b0 b
b10 "
b10 4
b10 C
b10011000000000 q
b10 r
b11 U
1)
1c
#7595
1*
1o"
#7800
0C"
b0 '
b0 X
0M
0R
0J
b0 I
1L
b1111111111111111 +
b1111111111111111 D
b0 ,
0$
#8000
0)
0c
#8500
1)
1c
#8680
0*
0o"
#8800
xC"
b0x000000000 '
b0x000000000 X
1M
xR
xJ
b1x I
0L
b1001110100000 +
b1001110100000 D
b1 ,
1$
#9000
0)
0c
#9500
b1001110100000 O
b1001110100000 |
b1001110100000 ""
b1001110100000 &"
b1001110100000 *"
b1001110100000 ."
b1001110100000 2"
b1001110100000 6"
b1001110100000 :"
b1001110100000 >"
b1001110100000 B"
b1001110100000 F"
b1001110100000 J"
b1001110100000 N"
b1001110100000 R"
b1001110100000 V"
b1001110100000 Z"
b1111111100000000 #
b1111111100000000 5
x/"
0C"
b0x0000 '
b0x0000 X
xS
b100 P
b1110100000 T
b10100000 b
b11 "
b11 4
b11 C
b1001110100000 q
b11 r
b100 U
1)
1c
#9765
1*
1o"
#9800
b1111111111111111 O
b1111111111111111 |
b1111111111111111 ""
b1111111111111111 &"
b1111111111111111 *"
b1111111111111111 ."
b1111111111111111 2"
b1111111111111111 6"
b1111111111111111 :"
b1111111111111111 >"
b1111111111111111 B"
b1111111111111111 F"
b1111111111111111 J"
b1111111111111111 N"
b1111111111111111 R"
b1111111111111111 V"
b1111111111111111 Z"
0/"
0S
b0 '
b0 X
0M
0R
0J
b0 I
1L
b1111111111111111 +
b1111111111111111 D
b0 ,
0$
#10000
0)
0c
#10500
1)
1c
#10800
b1111111100000000 O
b1111111100000000 |
b1111111100000000 ""
b1111111100000000 &"
b1111111100000000 *"
b1111111100000000 ."
b1111111100000000 2"
b1111111100000000 6"
b1111111100000000 :"
b1111111100000000 >"
b1111111100000000 B"
b1111111100000000 F"
b1111111100000000 J"
b1111111100000000 N"
b1111111100000000 R"
b1111111100000000 V"
b1111111100000000 Z"
x/"
xS
b0x0000 '
b0x0000 X
1M
xR
xJ
b1x I
0L
b1111111100000000 +
b1111111100000000 D
b1 ,
1$
#10850
0*
0o"
#11000
0)
0c
#11500
b0 O
b0 |
b0 ""
b0 &"
b0 *"
b0 ."
b0 2"
b0 6"
b0 :"
b0 >"
b0 B"
b0 F"
b0 J"
b0 N"
b0 R"
b0 V"
b0 Z"
b1011101100000 #
b1011101100000 5
0/"
xZ
b0 '
b0 X
0S
b111111 P
b1100000000 T
b0 b
b100 "
b100 4
b100 C
xp
b0x001x I
b1111111100000000 q
b100 r
b101 U
1)
1c
#11800
0Z
0M
0R
0J
b0x0000 I
1L
b1111111111111111 +
b1111111111111111 D
b0 ,
0$
#11935
1*
1o"
#12000
0)
0c
#12500
1)
1c
#12800
xZ
1M
xR
xJ
b0x001x I
0L
b1011101100000 +
b1011101100000 D
b1 ,
1$
#13000
0)
0c
#13020
0*
0o"
#13500
b1111111111111111 O
b1111111111111111 |
b1111111111111111 ""
b1111111111111111 &"
b1111111111111111 *"
b1111111111111111 ."
b1111111111111111 2"
b1111111111111111 6"
b1111111111111111 :"
b1111111111111111 >"
b1111111111111111 B"
b1111111111111111 F"
b1111111111111111 J"
b1111111111111111 N"
b1111111111111111 R"
b1111111111111111 V"
b1111111111111111 Z"
b101000000000 #
b101000000000 5
x3"
0Z
b0x00000 '
b0x00000 X
b101 P
b1101100000 T
b1100000 b
b101 "
b101 4
b101 C
xo
0p
bx0001x I
b1011101100000 q
b101 r
b110 U
1)
1c
#13800
03"
b0 '
b0 X
0M
0R
0J
bx00000 I
1L
b1111111111111111 +
b1111111111111111 D
b0 ,
0$
#14000
0)
0c
#14105
1*
1o"
#14500
1)
1c
#14800
x3"
b0x00000 '
b0x00000 X
1M
xR
xJ
bx0001x I
0L
b101000000000 +
b101000000000 D
b1 ,
1$
#15000
0)
0c
#15190
0*
0o"
#15500
b0 O
b0 |
b0 ""
b0 &"
b0 *"
b0 ."
b0 2"
b0 6"
b0 :"
b0 >"
b0 B"
b0 F"
b0 J"
b0 N"
b0 R"
b0 V"
b0 Z"
b1000000101 #
b1000000101 5
x'"
03"
b0x00 '
b0x00 X
b10 P
b1000000000 T
b0 b
b110 "
b110 4
b110 C
0o
b1x I
b101000000000 q
b110 r
b111 U
1)
1c
#15800
0'"
b0 '
b0 X
0M
0R
0J
b0 I
1L
b1111111111111111 +
b1111111111111111 D
b0 ,
0$
#16000
0)
0c
#16275
1*
1o"
#16500
1)
1c
#16800
x'"
b0x00 '
b0x00 X
1M
xR
xJ
b1x I
0L
b1000000101 +
b1000000101 D
b1 ,
1$
#17000
0)
0c
#17360
0*
0o"
#17500
b101 O
b101 |
b101 ""
b101 &"
b101 *"
b101 ."
b101 2"
b101 6"
b101 :"
b101 >"
b101 B"
b101 F"
b101 J"
b101 N"
b101 R"
b101 V"
b101 Z"
b11110100000 #
b11110100000 5
x>
x}
0'"
b0x '
b0x X
b101 \
b0 P
b1000000101 T
b101 b
b111 "
b111 4
b111 C
b1000000101 q
b111 r
b1000 U
1)
1c
#17800
0>
0}
b0 '
b0 X
0M
0R
0J
b0 I
1L
b1111111111111111 +
b1111111111111111 D
b0 ,
0$
#18000
0)
0c
#18445
1*
1o"
#18500
1)
1c
#18800
x>
x}
b0x '
b0x X
1M
xR
xJ
b1x I
0L
b11110100000 +
b11110100000 D
b1 ,
1$
#19000
0)
0c
#19500
b11110100000 O
b11110100000 |
b11110100000 ""
b11110100000 &"
b11110100000 *"
b11110100000 ."
b11110100000 2"
b11110100000 6"
b11110100000 :"
b11110100000 >"
b11110100000 B"
b11110100000 F"
b11110100000 J"
b11110100000 N"
b11110100000 R"
b11110100000 V"
b11110100000 Z"
b1111111111111111 #
b1111111111111111 5
0}
x#"
b0x0 '
b0x0 X
b0 \
xS
b1 P
b1110100000 T
b10100000 b
b1000 "
b1000 4
b1000 C
b11110100000 q
b1000 r
b1001 U
xs
1)
1c
#19530
0*
0o"
#19800
b1111111111111111 O
b1111111111111111 |
b1111111111111111 ""
b1111111111111111 &"
b1111111111111111 *"
b1111111111111111 ."
b1111111111111111 2"
b1111111111111111 6"
b1111111111111111 :"
b1111111111111111 >"
b1111111111111111 B"
b1111111111111111 F"
b1111111111111111 J"
b1111111111111111 N"
b1111111111111111 R"
b1111111111111111 V"
b1111111111111111 Z"
0>
0#"
0S
b0 '
b0 X
0M
0R
0J
b0 I
1L
b1111111111111111 +
b1111111111111111 D
b0 ,
0$
#20000
0)
0c
#20500
0s
1)
1c
#20615
1*
1o"
#20800
x>
x#"
xS
b0x0 '
b0x0 X
1M
xR
xJ
b1x I
0L
b1 ,
1$
#21000
0)
0c
#21500
bx O
bx |
bx ""
bx &"
bx *"
bx ."
bx 2"
bx 6"
bx :"
bx >"
bx B"
bx F"
bx J"
bx N"
bx R"
bx V"
bx Z"
b1100100000000000 #
b1100100000000000 5
0>
0#"
xZ
b0 '
b0 X
0[
b1111 \
0S
b111111 P
b1111111111 T
b11111111 b
b1001 "
b1001 4
b1001 C
xp
b0x001x I
b1111111111111111 q
b1001 r
b1010 U
xs
1)
1c
#21700
0*
0o"
#21800
0Z
0M
0R
0J
b0x0000 I
1L
b0 ,
0$
#22000
0)
0c
#22500
0s
1)
1c
#22785
1*
1o"
#22800
xZ
1M
xR
xJ
b0x001x I
0L
b1100100000000000 +
b1100100000000000 D
b1 ,
1$
#23000
0)
0c
#23500
b1101100111000 #
b1101100111000 5
0Z
1[
b0 \
b0 O
b0 |
b0 ""
b0 &"
b0 *"
b0 ."
b0 2"
b0 6"
b0 :"
b0 >"
b0 B"
b0 F"
b0 J"
b0 N"
b0 R"
b0 V"
b0 Z"
b110010 P
b0 T
b0 b
b1010 "
b1010 4
b1010 C
xo
0p
bx0001x I
b1100100000000000 q
b1010 r
b1011 U
1)
1c
#23800
0M
0R
0J
bx00000 I
1L
b1111111111111111 +
b1111111111111111 D
b0 ,
0$
#23870
0*
0o"
#24000
0)
0c
#24500
1)
1c
#24800
1M
xR
xJ
bx0001x I
0L
b1101100111000 +
b1101100111000 D
b1 ,
1$
#24955
1*
1o"
#25000
0)
0c
#25500
b1001100100000 #
b1001100100000 5
x7"
b0x000000 '
b0x000000 X
0[
b1000 \
b0 O
b0 |
b0 ""
b0 &"
b0 *"
b0 ."
b0 2"
b0 6"
b0 :"
b0 >"
b0 B"
b0 F"
b0 J"
b0 N"
b0 R"
b0 V"
b0 Z"
b110 P
b1100111000 T
b111000 b
b1011 "
b1011 4
b1011 C
0o
b1x I
b1101100111000 q
b1011 r
b1100 U
1)
1c
#25800
07"
b0 '
b0 X
0M
0R
0J
b0 I
1L
b1111111111111111 +
b1111111111111111 D
b0 ,
0$
#26000
0)
0c
#26040
0*
0o"
#26500
1)
1c
#26800
x7"
b0x000000 '
b0x000000 X
1M
xR
xJ
b1x I
0L
b1001100100000 +
b1001100100000 D
b1 ,
1$
#27000
0)
0c
#27125
1*
1o"
#27500
b1100100000000000 #
b1100100000000000 5
x/"
07"
b0x0000 '
b0x0000 X
1[
b0 \
b100 P
b1100100000 T
b100000 b
b1100 "
b1100 4
b1100 C
b1001100100000 q
b1100 r
b1101 U
1)
1c
#27800
0/"
b0 '
b0 X
0M
0R
0J
b0 I
1L
b1111111111111111 +
b1111111111111111 D
b0 ,
0$
#28000
0)
0c
#28210
0*
0o"
#28500
1)
1c
#28800
x/"
b0x0000 '
b0x0000 X
1M
xR
xJ
b1x I
0L
b1100100000000000 +
b1100100000000000 D
b1 ,
1$
#29000
0)
0c
#29295
1*
1o"
#29500
b100 #
b100 5
0/"
b0 '
b0 X
b110010 P
b0 T
b0 b
b1101 "
b1101 4
b1101 C
b1100100000000000 q
b1101 r
b1110 U
1)
1c
#29800
0M
0R
0J
b0 I
1L
b1111111111111111 +
b1111111111111111 D
b0 ,
0$
#30000
0)
0c
#30380
0*
0o"
#30500
1)
1c
#30800
1M
xR
xJ
b1x I
0L
b100 +
b100 D
b1 ,
1$
#31000
0)
0c
#31465
1*
1o"
#31500
b1101010011 #
b1101010011 5
x>
x}
b0x '
b0x X
0[
b100 \
b0 O
b0 |
b0 ""
b0 &"
b0 *"
b0 ."
b0 2"
b0 6"
b0 :"
b0 >"
b0 B"
b0 F"
b0 J"
b0 N"
b0 R"
b0 V"
b0 Z"
b0 P
b100 T
b100 b
b1110 "
b1110 4
b1110 C
b100 q
b1110 r
b1111 U
1)
1c
#31800
0>
0}
b0 '
b0 X
0M
0R
0J
b0 I
1L
b1111111111111111 +
b1111111111111111 D
b0 ,
0$
#32000
0)
0c
#32500
1)
1c
#32550
0*
0o"
#32800
x>
x}
b0x '
b0x X
1M
xR
xJ
b1x I
0L
b1101010011 +
b1101010011 D
b1 ,
1$
#33000
0)
0c
